EESchema Schematic File Version 2
LIBS:power
LIBS:device
LIBS:transistors
LIBS:conn
LIBS:linear
LIBS:regul
LIBS:74xx
LIBS:cmos4000
LIBS:adc-dac
LIBS:memory
LIBS:xilinx
LIBS:special
LIBS:microcontrollers
LIBS:dsp
LIBS:microchip
LIBS:analog_switches
LIBS:motorola
LIBS:texas
LIBS:intel
LIBS:audio
LIBS:interface
LIBS:digital-audio
LIBS:philips
LIBS:display
LIBS:cypress
LIBS:siliconi
LIBS:opto
LIBS:atmel
LIBS:contrib
LIBS:valves
LIBS:mycomponents
LIBS:basic
LIBS:kbohc-cache
EELAYER 25 0
EELAYER END
$Descr A3 16535 11693
encoding utf-8
Sheet 1 1
Title ""
Date ""
Rev ""
Comp ""
Comment1 ""
Comment2 ""
Comment3 ""
Comment4 ""
$EndDescr
$Comp
L LED D2
U 1 1 57AAE1A9
P 10900 4000
F 0 "D2" H 10900 4100 50  0000 C CNN
F 1 "LED" H 10900 3900 50  0000 C CNN
F 2 "smd-semi:vsmy2850g" H 10900 4000 60  0001 C CNN
F 3 "" H 10900 4000 60  0000 C CNN
	1    10900 4000
	0    1    1    0   
$EndComp
Text Notes 750  1100 0    60   ~ 0
Message has a pulse width 1us, gap 34us, duty 0.03.\nAt this duty cycle and pulse width, SFH4554 has If=>900mA, Vf=3.5v.\nBe conservative and place operating point at If=500mA => Vf=2.5v. \nWith 5v supply, this gives Rl = 5R\n
Text Notes 750  1750 0    60   ~ 0
Worst case power = 0.03x0.5x5 = 75mW per LED.\nEach full board = 4.8W = 1A@5v. \nFor USB only power (2.5W), fit only 32 LEDs and R80\nExternal power:  no fit R80, up to 3 daughter boards\nwith 5v4A supply\n
Text Notes 750  2150 0    60   ~ 0
Peak current = 33x0.5 = 17A. For low voltage drop < 0.2, need local\ncap. Q=17e-6 (1us pulse). C = 17e-6/0.2 = 85uF.
Text Notes 750  2600 0    60   ~ 0
But also need low drop over tracks to LEDs from C. Again assume\n< 0.2 drop = 0.2/17 = 12mR. With Cu thickness 35um, \ntrace width 2mm = 50mm trace length
$Comp
L MOSFET_N Q1
U 1 1 57AAEB2C
P 10100 5000
F 0 "Q1" H 10110 5170 60  0000 R CNN
F 1 "DMN3016LK3-13N" H 10110 4850 60  0000 R CNN
F 2 "smd-semi:TO-252" H 10100 5000 60  0001 C CNN
F 3 "" H 10100 5000 60  0000 C CNN
	1    10100 5000
	1    0    0    -1  
$EndComp
$Comp
L GND #PWR01
U 1 1 57AAEB77
P 10200 5500
F 0 "#PWR01" H 10200 5500 30  0001 C CNN
F 1 "GND" H 10200 5430 30  0001 C CNN
F 2 "" H 10200 5500 60  0000 C CNN
F 3 "" H 10200 5500 60  0000 C CNN
	1    10200 5500
	1    0    0    -1  
$EndComp
Wire Wire Line
	10200 5200 10200 5500
$Comp
L R R2
U 1 1 57AAEC3D
P 10900 3350
F 0 "R2" V 10980 3350 50  0000 C CNN
F 1 "5R" V 10900 3350 50  0000 C CNN
F 2 "IPC7351-Nominal:RESC2012X50" H 10900 3350 60  0001 C CNN
F 3 "" H 10900 3350 60  0000 C CNN
	1    10900 3350
	1    0    0    -1  
$EndComp
Wire Wire Line
	10900 4200 10900 4600
Wire Wire Line
	10900 3800 10900 3600
Wire Wire Line
	10900 3100 10900 2900
$Comp
L LED D4
U 1 1 57AAEDCC
P 11200 4000
F 0 "D4" H 11200 4100 50  0000 C CNN
F 1 "LED" H 11200 3900 50  0000 C CNN
F 2 "smd-semi:vsmy2850g" H 11200 4000 60  0001 C CNN
F 3 "" H 11200 4000 60  0000 C CNN
	1    11200 4000
	0    1    1    0   
$EndComp
$Comp
L R R4
U 1 1 57AAEDD2
P 11200 3350
F 0 "R4" V 11280 3350 50  0000 C CNN
F 1 "5R" V 11200 3350 50  0000 C CNN
F 2 "IPC7351-Nominal:RESC2012X50" H 11200 3350 60  0001 C CNN
F 3 "" H 11200 3350 60  0000 C CNN
	1    11200 3350
	1    0    0    -1  
$EndComp
Wire Wire Line
	11200 4200 11200 4600
Wire Wire Line
	11200 3800 11200 3600
Wire Wire Line
	11200 3100 11200 2900
$Comp
L LED D6
U 1 1 57AAEE85
P 11500 4000
F 0 "D6" H 11500 4100 50  0000 C CNN
F 1 "LED" H 11500 3900 50  0000 C CNN
F 2 "smd-semi:vsmy2850g" H 11500 4000 60  0001 C CNN
F 3 "" H 11500 4000 60  0000 C CNN
	1    11500 4000
	0    1    1    0   
$EndComp
$Comp
L R R6
U 1 1 57AAEE8B
P 11500 3350
F 0 "R6" V 11580 3350 50  0000 C CNN
F 1 "5R" V 11500 3350 50  0000 C CNN
F 2 "IPC7351-Nominal:RESC2012X50" H 11500 3350 60  0001 C CNN
F 3 "" H 11500 3350 60  0000 C CNN
	1    11500 3350
	1    0    0    -1  
$EndComp
Wire Wire Line
	11500 4200 11500 4600
Wire Wire Line
	11500 3800 11500 3600
Wire Wire Line
	11500 3100 11500 2900
$Comp
L LED D8
U 1 1 57AAEE94
P 11800 4000
F 0 "D8" H 11800 4100 50  0000 C CNN
F 1 "LED" H 11800 3900 50  0000 C CNN
F 2 "smd-semi:vsmy2850g" H 11800 4000 60  0001 C CNN
F 3 "" H 11800 4000 60  0000 C CNN
	1    11800 4000
	0    1    1    0   
$EndComp
$Comp
L R R8
U 1 1 57AAEE9A
P 11800 3350
F 0 "R8" V 11880 3350 50  0000 C CNN
F 1 "5R" V 11800 3350 50  0000 C CNN
F 2 "IPC7351-Nominal:RESC2012X50" H 11800 3350 60  0001 C CNN
F 3 "" H 11800 3350 60  0000 C CNN
	1    11800 3350
	1    0    0    -1  
$EndComp
Wire Wire Line
	11800 4200 11800 4600
Wire Wire Line
	11800 3800 11800 3600
Wire Wire Line
	11800 3100 11800 2900
$Comp
L LED D10
U 1 1 57AAF035
P 12100 4000
F 0 "D10" H 12100 4100 50  0000 C CNN
F 1 "LED" H 12100 3900 50  0000 C CNN
F 2 "smd-semi:vsmy2850g" H 12100 4000 60  0001 C CNN
F 3 "" H 12100 4000 60  0000 C CNN
	1    12100 4000
	0    1    1    0   
$EndComp
$Comp
L R R10
U 1 1 57AAF03B
P 12100 3350
F 0 "R10" V 12180 3350 50  0000 C CNN
F 1 "5R" V 12100 3350 50  0000 C CNN
F 2 "IPC7351-Nominal:RESC2012X50" H 12100 3350 60  0001 C CNN
F 3 "" H 12100 3350 60  0000 C CNN
	1    12100 3350
	1    0    0    -1  
$EndComp
Wire Wire Line
	12100 4200 12100 4600
Wire Wire Line
	12100 3800 12100 3600
Wire Wire Line
	12100 3100 12100 2900
$Comp
L LED D12
U 1 1 57AAF044
P 12400 4000
F 0 "D12" H 12400 4100 50  0000 C CNN
F 1 "LED" H 12400 3900 50  0000 C CNN
F 2 "smd-semi:vsmy2850g" H 12400 4000 60  0001 C CNN
F 3 "" H 12400 4000 60  0000 C CNN
	1    12400 4000
	0    1    1    0   
$EndComp
$Comp
L R R12
U 1 1 57AAF04A
P 12400 3350
F 0 "R12" V 12480 3350 50  0000 C CNN
F 1 "5R" V 12400 3350 50  0000 C CNN
F 2 "IPC7351-Nominal:RESC2012X50" H 12400 3350 60  0001 C CNN
F 3 "" H 12400 3350 60  0000 C CNN
	1    12400 3350
	1    0    0    -1  
$EndComp
Wire Wire Line
	12400 4200 12400 4600
Wire Wire Line
	12400 3800 12400 3600
Wire Wire Line
	12400 3100 12400 2900
$Comp
L LED D14
U 1 1 57AAF053
P 12700 4000
F 0 "D14" H 12700 4100 50  0000 C CNN
F 1 "LED" H 12700 3900 50  0000 C CNN
F 2 "smd-semi:vsmy2850g" H 12700 4000 60  0001 C CNN
F 3 "" H 12700 4000 60  0000 C CNN
	1    12700 4000
	0    1    1    0   
$EndComp
$Comp
L R R14
U 1 1 57AAF059
P 12700 3350
F 0 "R14" V 12780 3350 50  0000 C CNN
F 1 "5R" V 12700 3350 50  0000 C CNN
F 2 "IPC7351-Nominal:RESC2012X50" H 12700 3350 60  0001 C CNN
F 3 "" H 12700 3350 60  0000 C CNN
	1    12700 3350
	1    0    0    -1  
$EndComp
Wire Wire Line
	12700 4200 12700 4600
Wire Wire Line
	12700 3800 12700 3600
Wire Wire Line
	12700 3100 12700 2900
$Comp
L LED D16
U 1 1 57AAF062
P 13000 4000
F 0 "D16" H 13000 4100 50  0000 C CNN
F 1 "LED" H 13000 3900 50  0000 C CNN
F 2 "smd-semi:vsmy2850g" H 13000 4000 60  0001 C CNN
F 3 "" H 13000 4000 60  0000 C CNN
	1    13000 4000
	0    1    1    0   
$EndComp
$Comp
L R R16
U 1 1 57AAF068
P 13000 3350
F 0 "R16" V 13080 3350 50  0000 C CNN
F 1 "5R" V 13000 3350 50  0000 C CNN
F 2 "IPC7351-Nominal:RESC2012X50" H 13000 3350 60  0001 C CNN
F 3 "" H 13000 3350 60  0000 C CNN
	1    13000 3350
	1    0    0    -1  
$EndComp
Wire Wire Line
	13000 4600 13000 4200
Wire Wire Line
	13000 3800 13000 3600
Wire Wire Line
	13000 3100 13000 2900
$Comp
L LED D18
U 1 1 57AAF4A3
P 13300 4000
F 0 "D18" H 13300 4100 50  0000 C CNN
F 1 "LED" H 13300 3900 50  0000 C CNN
F 2 "smd-semi:vsmy2850g" H 13300 4000 60  0001 C CNN
F 3 "" H 13300 4000 60  0000 C CNN
	1    13300 4000
	0    1    1    0   
$EndComp
$Comp
L R R18
U 1 1 57AAF4A9
P 13300 3350
F 0 "R18" V 13380 3350 50  0000 C CNN
F 1 "5R" V 13300 3350 50  0000 C CNN
F 2 "IPC7351-Nominal:RESC2012X50" H 13300 3350 60  0001 C CNN
F 3 "" H 13300 3350 60  0000 C CNN
	1    13300 3350
	1    0    0    -1  
$EndComp
Wire Wire Line
	13300 4200 13300 4600
Wire Wire Line
	13300 3800 13300 3600
Wire Wire Line
	13300 3100 13300 2900
$Comp
L LED D20
U 1 1 57AAF4B2
P 13600 4000
F 0 "D20" H 13600 4100 50  0000 C CNN
F 1 "LED" H 13600 3900 50  0000 C CNN
F 2 "smd-semi:vsmy2850g" H 13600 4000 60  0001 C CNN
F 3 "" H 13600 4000 60  0000 C CNN
	1    13600 4000
	0    1    1    0   
$EndComp
$Comp
L R R20
U 1 1 57AAF4B8
P 13600 3350
F 0 "R20" V 13680 3350 50  0000 C CNN
F 1 "5R" V 13600 3350 50  0000 C CNN
F 2 "IPC7351-Nominal:RESC2012X50" H 13600 3350 60  0001 C CNN
F 3 "" H 13600 3350 60  0000 C CNN
	1    13600 3350
	1    0    0    -1  
$EndComp
Wire Wire Line
	13600 4200 13600 4600
Wire Wire Line
	13600 3800 13600 3600
Wire Wire Line
	13600 3100 13600 2900
$Comp
L LED D22
U 1 1 57AAF4C1
P 13900 4000
F 0 "D22" H 13900 4100 50  0000 C CNN
F 1 "LED" H 13900 3900 50  0000 C CNN
F 2 "smd-semi:vsmy2850g" H 13900 4000 60  0001 C CNN
F 3 "" H 13900 4000 60  0000 C CNN
	1    13900 4000
	0    1    1    0   
$EndComp
$Comp
L R R22
U 1 1 57AAF4C7
P 13900 3350
F 0 "R22" V 13980 3350 50  0000 C CNN
F 1 "5R" V 13900 3350 50  0000 C CNN
F 2 "IPC7351-Nominal:RESC2012X50" H 13900 3350 60  0001 C CNN
F 3 "" H 13900 3350 60  0000 C CNN
	1    13900 3350
	1    0    0    -1  
$EndComp
Wire Wire Line
	13900 4200 13900 4600
Wire Wire Line
	13900 3800 13900 3600
Wire Wire Line
	13900 3100 13900 2900
$Comp
L LED D24
U 1 1 57AAF4D0
P 14200 4000
F 0 "D24" H 14200 4100 50  0000 C CNN
F 1 "LED" H 14200 3900 50  0000 C CNN
F 2 "smd-semi:vsmy2850g" H 14200 4000 60  0001 C CNN
F 3 "" H 14200 4000 60  0000 C CNN
	1    14200 4000
	0    1    1    0   
$EndComp
$Comp
L R R24
U 1 1 57AAF4D6
P 14200 3350
F 0 "R24" V 14280 3350 50  0000 C CNN
F 1 "5R" V 14200 3350 50  0000 C CNN
F 2 "IPC7351-Nominal:RESC2012X50" H 14200 3350 60  0001 C CNN
F 3 "" H 14200 3350 60  0000 C CNN
	1    14200 3350
	1    0    0    -1  
$EndComp
Wire Wire Line
	14200 4200 14200 4600
Wire Wire Line
	14200 3800 14200 3600
Wire Wire Line
	14200 3100 14200 2900
$Comp
L LED D26
U 1 1 57AAF4DF
P 14500 4000
F 0 "D26" H 14500 4100 50  0000 C CNN
F 1 "LED" H 14500 3900 50  0000 C CNN
F 2 "smd-semi:vsmy2850g" H 14500 4000 60  0001 C CNN
F 3 "" H 14500 4000 60  0000 C CNN
	1    14500 4000
	0    1    1    0   
$EndComp
$Comp
L R R26
U 1 1 57AAF4E5
P 14500 3350
F 0 "R26" V 14580 3350 50  0000 C CNN
F 1 "5R" V 14500 3350 50  0000 C CNN
F 2 "IPC7351-Nominal:RESC2012X50" H 14500 3350 60  0001 C CNN
F 3 "" H 14500 3350 60  0000 C CNN
	1    14500 3350
	1    0    0    -1  
$EndComp
Wire Wire Line
	14500 4200 14500 4600
Wire Wire Line
	14500 3800 14500 3600
Wire Wire Line
	14500 3100 14500 2900
$Comp
L LED D28
U 1 1 57AAF4EE
P 14800 4000
F 0 "D28" H 14800 4100 50  0000 C CNN
F 1 "LED" H 14800 3900 50  0000 C CNN
F 2 "smd-semi:vsmy2850g" H 14800 4000 60  0001 C CNN
F 3 "" H 14800 4000 60  0000 C CNN
	1    14800 4000
	0    1    1    0   
$EndComp
$Comp
L R R28
U 1 1 57AAF4F4
P 14800 3350
F 0 "R28" V 14880 3350 50  0000 C CNN
F 1 "5R" V 14800 3350 50  0000 C CNN
F 2 "IPC7351-Nominal:RESC2012X50" H 14800 3350 60  0001 C CNN
F 3 "" H 14800 3350 60  0000 C CNN
	1    14800 3350
	1    0    0    -1  
$EndComp
Wire Wire Line
	14800 4200 14800 4600
Wire Wire Line
	14800 3800 14800 3600
Wire Wire Line
	14800 3100 14800 2900
$Comp
L LED D30
U 1 1 57AAF4FD
P 15100 4000
F 0 "D30" H 15100 4100 50  0000 C CNN
F 1 "LED" H 15100 3900 50  0000 C CNN
F 2 "smd-semi:vsmy2850g" H 15100 4000 60  0001 C CNN
F 3 "" H 15100 4000 60  0000 C CNN
	1    15100 4000
	0    1    1    0   
$EndComp
$Comp
L R R30
U 1 1 57AAF503
P 15100 3350
F 0 "R30" V 15180 3350 50  0000 C CNN
F 1 "5R" V 15100 3350 50  0000 C CNN
F 2 "IPC7351-Nominal:RESC2012X50" H 15100 3350 60  0001 C CNN
F 3 "" H 15100 3350 60  0000 C CNN
	1    15100 3350
	1    0    0    -1  
$EndComp
Wire Wire Line
	15100 4200 15100 4600
Wire Wire Line
	15100 3800 15100 3600
Wire Wire Line
	15100 3100 15100 2900
$Comp
L LED D32
U 1 1 57AAF50C
P 15400 4000
F 0 "D32" H 15400 4100 50  0000 C CNN
F 1 "LED" H 15400 3900 50  0000 C CNN
F 2 "smd-semi:vsmy2850g" H 15400 4000 60  0001 C CNN
F 3 "" H 15400 4000 60  0000 C CNN
	1    15400 4000
	0    1    1    0   
$EndComp
$Comp
L R R32
U 1 1 57AAF512
P 15400 3350
F 0 "R32" V 15480 3350 50  0000 C CNN
F 1 "5R" V 15400 3350 50  0000 C CNN
F 2 "IPC7351-Nominal:RESC2012X50" H 15400 3350 60  0001 C CNN
F 3 "" H 15400 3350 60  0000 C CNN
	1    15400 3350
	1    0    0    -1  
$EndComp
Wire Wire Line
	15400 4600 15400 4200
Wire Wire Line
	15400 3800 15400 3600
Wire Wire Line
	15400 2900 15400 3100
$Comp
L LED D1
U 1 1 57AB01FD
P 10900 1900
F 0 "D1" H 10900 2000 50  0000 C CNN
F 1 "LED" H 10900 1800 50  0000 C CNN
F 2 "smd-semi:vsmy2850g" H 10900 1900 60  0001 C CNN
F 3 "" H 10900 1900 60  0000 C CNN
	1    10900 1900
	0    1    1    0   
$EndComp
$Comp
L R R1
U 1 1 57AB0203
P 10900 1250
F 0 "R1" V 10980 1250 50  0000 C CNN
F 1 "5R" V 10900 1250 50  0000 C CNN
F 2 "IPC7351-Nominal:RESC2012X50" H 10900 1250 60  0001 C CNN
F 3 "" H 10900 1250 60  0000 C CNN
	1    10900 1250
	1    0    0    -1  
$EndComp
Wire Wire Line
	10900 2100 10900 2500
Wire Wire Line
	10900 1700 10900 1500
Wire Wire Line
	10900 1000 10900 800 
$Comp
L LED D3
U 1 1 57AB020C
P 11200 1900
F 0 "D3" H 11200 2000 50  0000 C CNN
F 1 "LED" H 11200 1800 50  0000 C CNN
F 2 "smd-semi:vsmy2850g" H 11200 1900 60  0001 C CNN
F 3 "" H 11200 1900 60  0000 C CNN
	1    11200 1900
	0    1    1    0   
$EndComp
$Comp
L R R3
U 1 1 57AB0212
P 11200 1250
F 0 "R3" V 11280 1250 50  0000 C CNN
F 1 "5R" V 11200 1250 50  0000 C CNN
F 2 "IPC7351-Nominal:RESC2012X50" H 11200 1250 60  0001 C CNN
F 3 "" H 11200 1250 60  0000 C CNN
	1    11200 1250
	1    0    0    -1  
$EndComp
Wire Wire Line
	11200 2100 11200 2500
Wire Wire Line
	11200 1700 11200 1500
Wire Wire Line
	11200 1000 11200 800 
$Comp
L LED D5
U 1 1 57AB021B
P 11500 1900
F 0 "D5" H 11500 2000 50  0000 C CNN
F 1 "LED" H 11500 1800 50  0000 C CNN
F 2 "smd-semi:vsmy2850g" H 11500 1900 60  0001 C CNN
F 3 "" H 11500 1900 60  0000 C CNN
	1    11500 1900
	0    1    1    0   
$EndComp
$Comp
L R R5
U 1 1 57AB0221
P 11500 1250
F 0 "R5" V 11580 1250 50  0000 C CNN
F 1 "5R" V 11500 1250 50  0000 C CNN
F 2 "IPC7351-Nominal:RESC2012X50" H 11500 1250 60  0001 C CNN
F 3 "" H 11500 1250 60  0000 C CNN
	1    11500 1250
	1    0    0    -1  
$EndComp
Wire Wire Line
	11500 2100 11500 2500
Wire Wire Line
	11500 1700 11500 1500
Wire Wire Line
	11500 1000 11500 800 
$Comp
L LED D7
U 1 1 57AB022A
P 11800 1900
F 0 "D7" H 11800 2000 50  0000 C CNN
F 1 "LED" H 11800 1800 50  0000 C CNN
F 2 "smd-semi:vsmy2850g" H 11800 1900 60  0001 C CNN
F 3 "" H 11800 1900 60  0000 C CNN
	1    11800 1900
	0    1    1    0   
$EndComp
$Comp
L R R7
U 1 1 57AB0230
P 11800 1250
F 0 "R7" V 11880 1250 50  0000 C CNN
F 1 "5R" V 11800 1250 50  0000 C CNN
F 2 "IPC7351-Nominal:RESC2012X50" H 11800 1250 60  0001 C CNN
F 3 "" H 11800 1250 60  0000 C CNN
	1    11800 1250
	1    0    0    -1  
$EndComp
Wire Wire Line
	11800 2100 11800 2500
Wire Wire Line
	11800 1700 11800 1500
Wire Wire Line
	11800 1000 11800 800 
$Comp
L LED D9
U 1 1 57AB0239
P 12100 1900
F 0 "D9" H 12100 2000 50  0000 C CNN
F 1 "LED" H 12100 1800 50  0000 C CNN
F 2 "smd-semi:vsmy2850g" H 12100 1900 60  0001 C CNN
F 3 "" H 12100 1900 60  0000 C CNN
	1    12100 1900
	0    1    1    0   
$EndComp
$Comp
L R R9
U 1 1 57AB023F
P 12100 1250
F 0 "R9" V 12180 1250 50  0000 C CNN
F 1 "5R" V 12100 1250 50  0000 C CNN
F 2 "IPC7351-Nominal:RESC2012X50" H 12100 1250 60  0001 C CNN
F 3 "" H 12100 1250 60  0000 C CNN
	1    12100 1250
	1    0    0    -1  
$EndComp
Wire Wire Line
	12100 2100 12100 2500
Wire Wire Line
	12100 1700 12100 1500
Wire Wire Line
	12100 1000 12100 800 
$Comp
L LED D11
U 1 1 57AB0248
P 12400 1900
F 0 "D11" H 12400 2000 50  0000 C CNN
F 1 "LED" H 12400 1800 50  0000 C CNN
F 2 "smd-semi:vsmy2850g" H 12400 1900 60  0001 C CNN
F 3 "" H 12400 1900 60  0000 C CNN
	1    12400 1900
	0    1    1    0   
$EndComp
$Comp
L R R11
U 1 1 57AB024E
P 12400 1250
F 0 "R11" V 12480 1250 50  0000 C CNN
F 1 "5R" V 12400 1250 50  0000 C CNN
F 2 "IPC7351-Nominal:RESC2012X50" H 12400 1250 60  0001 C CNN
F 3 "" H 12400 1250 60  0000 C CNN
	1    12400 1250
	1    0    0    -1  
$EndComp
Wire Wire Line
	12400 2100 12400 2500
Wire Wire Line
	12400 1700 12400 1500
Wire Wire Line
	12400 1000 12400 800 
$Comp
L LED D13
U 1 1 57AB0257
P 12700 1900
F 0 "D13" H 12700 2000 50  0000 C CNN
F 1 "LED" H 12700 1800 50  0000 C CNN
F 2 "smd-semi:vsmy2850g" H 12700 1900 60  0001 C CNN
F 3 "" H 12700 1900 60  0000 C CNN
	1    12700 1900
	0    1    1    0   
$EndComp
$Comp
L R R13
U 1 1 57AB025D
P 12700 1250
F 0 "R13" V 12780 1250 50  0000 C CNN
F 1 "5R" V 12700 1250 50  0000 C CNN
F 2 "IPC7351-Nominal:RESC2012X50" H 12700 1250 60  0001 C CNN
F 3 "" H 12700 1250 60  0000 C CNN
	1    12700 1250
	1    0    0    -1  
$EndComp
Wire Wire Line
	12700 2100 12700 2500
Wire Wire Line
	12700 1700 12700 1500
Wire Wire Line
	12700 1000 12700 800 
$Comp
L LED D15
U 1 1 57AB0266
P 13000 1900
F 0 "D15" H 13000 2000 50  0000 C CNN
F 1 "LED" H 13000 1800 50  0000 C CNN
F 2 "smd-semi:vsmy2850g" H 13000 1900 60  0001 C CNN
F 3 "" H 13000 1900 60  0000 C CNN
	1    13000 1900
	0    1    1    0   
$EndComp
$Comp
L R R15
U 1 1 57AB026C
P 13000 1250
F 0 "R15" V 13080 1250 50  0000 C CNN
F 1 "5R" V 13000 1250 50  0000 C CNN
F 2 "IPC7351-Nominal:RESC2012X50" H 13000 1250 60  0001 C CNN
F 3 "" H 13000 1250 60  0000 C CNN
	1    13000 1250
	1    0    0    -1  
$EndComp
Wire Wire Line
	13000 2100 13000 2500
Wire Wire Line
	13000 1700 13000 1500
Wire Wire Line
	13000 1000 13000 800 
$Comp
L LED D17
U 1 1 57AB0275
P 13300 1900
F 0 "D17" H 13300 2000 50  0000 C CNN
F 1 "LED" H 13300 1800 50  0000 C CNN
F 2 "smd-semi:vsmy2850g" H 13300 1900 60  0001 C CNN
F 3 "" H 13300 1900 60  0000 C CNN
	1    13300 1900
	0    1    1    0   
$EndComp
$Comp
L R R17
U 1 1 57AB027B
P 13300 1250
F 0 "R17" V 13380 1250 50  0000 C CNN
F 1 "5R" V 13300 1250 50  0000 C CNN
F 2 "IPC7351-Nominal:RESC2012X50" H 13300 1250 60  0001 C CNN
F 3 "" H 13300 1250 60  0000 C CNN
	1    13300 1250
	1    0    0    -1  
$EndComp
Wire Wire Line
	13300 2100 13300 2500
Wire Wire Line
	13300 1700 13300 1500
Wire Wire Line
	13300 1000 13300 800 
$Comp
L LED D19
U 1 1 57AB0284
P 13600 1900
F 0 "D19" H 13600 2000 50  0000 C CNN
F 1 "LED" H 13600 1800 50  0000 C CNN
F 2 "smd-semi:vsmy2850g" H 13600 1900 60  0001 C CNN
F 3 "" H 13600 1900 60  0000 C CNN
	1    13600 1900
	0    1    1    0   
$EndComp
$Comp
L R R19
U 1 1 57AB028A
P 13600 1250
F 0 "R19" V 13680 1250 50  0000 C CNN
F 1 "5R" V 13600 1250 50  0000 C CNN
F 2 "IPC7351-Nominal:RESC2012X50" H 13600 1250 60  0001 C CNN
F 3 "" H 13600 1250 60  0000 C CNN
	1    13600 1250
	1    0    0    -1  
$EndComp
Wire Wire Line
	13600 2100 13600 2500
Wire Wire Line
	13600 1700 13600 1500
Wire Wire Line
	13600 1000 13600 800 
$Comp
L LED D21
U 1 1 57AB0293
P 13900 1900
F 0 "D21" H 13900 2000 50  0000 C CNN
F 1 "LED" H 13900 1800 50  0000 C CNN
F 2 "smd-semi:vsmy2850g" H 13900 1900 60  0001 C CNN
F 3 "" H 13900 1900 60  0000 C CNN
	1    13900 1900
	0    1    1    0   
$EndComp
$Comp
L R R21
U 1 1 57AB0299
P 13900 1250
F 0 "R21" V 13980 1250 50  0000 C CNN
F 1 "5R" V 13900 1250 50  0000 C CNN
F 2 "IPC7351-Nominal:RESC2012X50" H 13900 1250 60  0001 C CNN
F 3 "" H 13900 1250 60  0000 C CNN
	1    13900 1250
	1    0    0    -1  
$EndComp
Wire Wire Line
	13900 2100 13900 2500
Wire Wire Line
	13900 1700 13900 1500
Wire Wire Line
	13900 1000 13900 800 
$Comp
L LED D23
U 1 1 57AB02A2
P 14200 1900
F 0 "D23" H 14200 2000 50  0000 C CNN
F 1 "LED" H 14200 1800 50  0000 C CNN
F 2 "smd-semi:vsmy2850g" H 14200 1900 60  0001 C CNN
F 3 "" H 14200 1900 60  0000 C CNN
	1    14200 1900
	0    1    1    0   
$EndComp
$Comp
L R R23
U 1 1 57AB02A8
P 14200 1250
F 0 "R23" V 14280 1250 50  0000 C CNN
F 1 "5R" V 14200 1250 50  0000 C CNN
F 2 "IPC7351-Nominal:RESC2012X50" H 14200 1250 60  0001 C CNN
F 3 "" H 14200 1250 60  0000 C CNN
	1    14200 1250
	1    0    0    -1  
$EndComp
Wire Wire Line
	14200 2100 14200 2500
Wire Wire Line
	14200 1700 14200 1500
Wire Wire Line
	14200 1000 14200 800 
$Comp
L LED D25
U 1 1 57AB02B1
P 14500 1900
F 0 "D25" H 14500 2000 50  0000 C CNN
F 1 "LED" H 14500 1800 50  0000 C CNN
F 2 "smd-semi:vsmy2850g" H 14500 1900 60  0001 C CNN
F 3 "" H 14500 1900 60  0000 C CNN
	1    14500 1900
	0    1    1    0   
$EndComp
$Comp
L R R25
U 1 1 57AB02B7
P 14500 1250
F 0 "R25" V 14580 1250 50  0000 C CNN
F 1 "5R" V 14500 1250 50  0000 C CNN
F 2 "IPC7351-Nominal:RESC2012X50" H 14500 1250 60  0001 C CNN
F 3 "" H 14500 1250 60  0000 C CNN
	1    14500 1250
	1    0    0    -1  
$EndComp
Wire Wire Line
	14500 2100 14500 2500
Wire Wire Line
	14500 1700 14500 1500
Wire Wire Line
	14500 1000 14500 800 
$Comp
L LED D27
U 1 1 57AB02C0
P 14800 1900
F 0 "D27" H 14800 2000 50  0000 C CNN
F 1 "LED" H 14800 1800 50  0000 C CNN
F 2 "smd-semi:vsmy2850g" H 14800 1900 60  0001 C CNN
F 3 "" H 14800 1900 60  0000 C CNN
	1    14800 1900
	0    1    1    0   
$EndComp
$Comp
L R R27
U 1 1 57AB02C6
P 14800 1250
F 0 "R27" V 14880 1250 50  0000 C CNN
F 1 "5R" V 14800 1250 50  0000 C CNN
F 2 "IPC7351-Nominal:RESC2012X50" H 14800 1250 60  0001 C CNN
F 3 "" H 14800 1250 60  0000 C CNN
	1    14800 1250
	1    0    0    -1  
$EndComp
Wire Wire Line
	14800 2100 14800 2500
Wire Wire Line
	14800 1700 14800 1500
Wire Wire Line
	14800 1000 14800 800 
$Comp
L LED D29
U 1 1 57AB02CF
P 15100 1900
F 0 "D29" H 15100 2000 50  0000 C CNN
F 1 "LED" H 15100 1800 50  0000 C CNN
F 2 "smd-semi:vsmy2850g" H 15100 1900 60  0001 C CNN
F 3 "" H 15100 1900 60  0000 C CNN
	1    15100 1900
	0    1    1    0   
$EndComp
$Comp
L R R29
U 1 1 57AB02D5
P 15100 1250
F 0 "R29" V 15180 1250 50  0000 C CNN
F 1 "5R" V 15100 1250 50  0000 C CNN
F 2 "IPC7351-Nominal:RESC2012X50" H 15100 1250 60  0001 C CNN
F 3 "" H 15100 1250 60  0000 C CNN
	1    15100 1250
	1    0    0    -1  
$EndComp
Wire Wire Line
	15100 2100 15100 2500
Wire Wire Line
	15100 1700 15100 1500
Wire Wire Line
	15100 1000 15100 800 
$Comp
L LED D31
U 1 1 57AB02DE
P 15400 1900
F 0 "D31" H 15400 2000 50  0000 C CNN
F 1 "LED" H 15400 1800 50  0000 C CNN
F 2 "smd-semi:vsmy2850g" H 15400 1900 60  0001 C CNN
F 3 "" H 15400 1900 60  0000 C CNN
	1    15400 1900
	0    1    1    0   
$EndComp
$Comp
L R R31
U 1 1 57AB02E4
P 15400 1250
F 0 "R31" V 15480 1250 50  0000 C CNN
F 1 "5R" V 15400 1250 50  0000 C CNN
F 2 "IPC7351-Nominal:RESC2012X50" H 15400 1250 60  0001 C CNN
F 3 "" H 15400 1250 60  0000 C CNN
	1    15400 1250
	1    0    0    -1  
$EndComp
Wire Wire Line
	15400 2500 15400 2100
Wire Wire Line
	15400 1700 15400 1500
Wire Wire Line
	15400 1000 15400 800 
Wire Wire Line
	10200 800  10200 2900
Wire Wire Line
	10600 2500 10600 9600
Connection ~ 10600 4600
$Comp
L CP1 C1
U 1 1 57AB1585
P 8900 3700
F 0 "C1" H 8950 3800 50  0000 L CNN
F 1 "47u" H 8950 3600 50  0000 L CNN
F 2 "IPC7351-Nominal:CAPC3216X105" H 8900 3700 60  0001 C CNN
F 3 "" H 8900 3700 60  0000 C CNN
	1    8900 3700
	1    0    0    -1  
$EndComp
$Comp
L CP1 C2
U 1 1 57AB1686
P 9200 3700
F 0 "C2" H 9250 3800 50  0000 L CNN
F 1 "47u" H 9250 3600 50  0000 L CNN
F 2 "IPC7351-Nominal:CAPC3216X105" H 9200 3700 60  0001 C CNN
F 3 "" H 9200 3700 60  0000 C CNN
	1    9200 3700
	1    0    0    -1  
$EndComp
$Comp
L CP1 C3
U 1 1 57AB1764
P 9500 3700
F 0 "C3" H 9550 3800 50  0000 L CNN
F 1 "47u" H 9550 3600 50  0000 L CNN
F 2 "IPC7351-Nominal:CAPC3216X105" H 9500 3700 60  0001 C CNN
F 3 "" H 9500 3700 60  0000 C CNN
	1    9500 3700
	1    0    0    -1  
$EndComp
$Comp
L CP1 C4
U 1 1 57AB1840
P 9800 3700
F 0 "C4" H 9850 3800 50  0000 L CNN
F 1 "47u" H 9850 3600 50  0000 L CNN
F 2 "IPC7351-Nominal:CAPC3216X105" H 9800 3700 60  0001 C CNN
F 3 "" H 9800 3700 60  0000 C CNN
	1    9800 3700
	1    0    0    -1  
$EndComp
$Comp
L GND #PWR02
U 1 1 57AB1920
P 9350 4200
F 0 "#PWR02" H 9350 4200 30  0001 C CNN
F 1 "GND" H 9350 4130 30  0001 C CNN
F 2 "" H 9350 4200 60  0000 C CNN
F 3 "" H 9350 4200 60  0000 C CNN
	1    9350 4200
	1    0    0    -1  
$EndComp
Wire Wire Line
	8900 3900 8900 4000
Wire Wire Line
	8900 4000 9800 4000
Wire Wire Line
	9800 4000 9800 3900
Wire Wire Line
	8900 2900 8900 3500
Wire Wire Line
	9200 3500 9200 2900
Connection ~ 9200 2900
Wire Wire Line
	9500 2900 9500 3500
Connection ~ 9500 2900
Wire Wire Line
	9800 2900 9800 3500
Connection ~ 9800 2900
Wire Wire Line
	9200 3900 9200 4000
Connection ~ 9200 4000
Wire Wire Line
	9500 3900 9500 4000
Connection ~ 9500 4000
Wire Wire Line
	9350 4000 9350 4200
Connection ~ 9350 4000
Text Notes 6700 3750 0    60   ~ 0
Distribute so max distance to LED < 50mm
Wire Wire Line
	9900 5000 9450 5000
$Comp
L +5V #PWR03
U 1 1 58505506
P 9050 2850
F 0 "#PWR03" H 9050 2700 60  0001 C CNN
F 1 "+5V" H 9050 2990 60  0000 C CNN
F 2 "" H 9050 2850 60  0000 C CNN
F 3 "" H 9050 2850 60  0000 C CNN
	1    9050 2850
	1    0    0    -1  
$EndComp
$Comp
L PWR_FLAG #FLG04
U 1 1 585056BE
P 3050 3550
F 0 "#FLG04" H 3050 3645 30  0001 C CNN
F 1 "PWR_FLAG" H 3050 3730 30  0000 C CNN
F 2 "" H 3050 3550 60  0000 C CNN
F 3 "" H 3050 3550 60  0000 C CNN
	1    3050 3550
	1    0    0    -1  
$EndComp
$Comp
L +5V #PWR05
U 1 1 585057A4
P 9150 4600
F 0 "#PWR05" H 9150 4450 60  0001 C CNN
F 1 "+5V" H 9150 4740 60  0000 C CNN
F 2 "" H 9150 4600 60  0000 C CNN
F 3 "" H 9150 4600 60  0000 C CNN
	1    9150 4600
	1    0    0    -1  
$EndComp
$Comp
L 74LVC1G17 U2
U 1 1 58505BF5
P 9000 4700
F 0 "U2" H 9250 4225 60  0000 C CNN
F 1 "74LVC1G17" H 8800 4650 60  0000 C CNN
F 2 "w_smd_trans:sot23-5" H 9000 4700 60  0001 C CNN
F 3 "" H 9000 4700 60  0001 C CNN
	1    9000 4700
	1    0    0    -1  
$EndComp
Wire Wire Line
	9150 4600 9150 4750
$Comp
L GND #PWR06
U 1 1 58505ED5
P 9150 5500
F 0 "#PWR06" H 9150 5500 30  0001 C CNN
F 1 "GND" H 9150 5430 30  0001 C CNN
F 2 "" H 9150 5500 60  0000 C CNN
F 3 "" H 9150 5500 60  0000 C CNN
	1    9150 5500
	1    0    0    -1  
$EndComp
Wire Wire Line
	9150 5250 9150 5500
$Comp
L CSmall C10
U 1 1 585062D1
P 9350 4650
F 0 "C10" H 9360 4720 50  0000 L CNN
F 1 "100n" H 9360 4570 50  0000 L CNN
F 2 "IPC7351-Nominal:CAPC2012X70" H 9350 4650 60  0001 C CNN
F 3 "" H 9350 4650 60  0000 C CNN
	1    9350 4650
	0    1    1    0   
$EndComp
Wire Wire Line
	9250 4650 9150 4650
Connection ~ 9150 4650
$Comp
L GND #PWR07
U 1 1 585064BD
P 9550 4700
F 0 "#PWR07" H 9550 4700 30  0001 C CNN
F 1 "GND" H 9550 4630 30  0001 C CNN
F 2 "" H 9550 4700 60  0000 C CNN
F 3 "" H 9550 4700 60  0000 C CNN
	1    9550 4700
	1    0    0    -1  
$EndComp
Wire Wire Line
	9450 4650 9550 4650
Wire Wire Line
	9550 4650 9550 4700
$Comp
L LED D34
U 1 1 5850904B
P 10900 9000
F 0 "D34" H 10900 9100 50  0000 C CNN
F 1 "LED" H 10900 8900 50  0000 C CNN
F 2 "smd-semi:vsmy2850g" H 10900 9000 60  0001 C CNN
F 3 "" H 10900 9000 60  0000 C CNN
	1    10900 9000
	0    1    1    0   
$EndComp
$Comp
L MOSFET_N Q2
U 1 1 58509051
P 10100 10000
F 0 "Q2" H 10110 10170 60  0000 R CNN
F 1 "DMN3016LK3-13N" H 10110 9850 60  0000 R CNN
F 2 "smd-semi:TO-252" H 10100 10000 60  0001 C CNN
F 3 "" H 10100 10000 60  0000 C CNN
	1    10100 10000
	1    0    0    -1  
$EndComp
$Comp
L GND #PWR08
U 1 1 58509057
P 10200 10500
F 0 "#PWR08" H 10200 10500 30  0001 C CNN
F 1 "GND" H 10200 10430 30  0001 C CNN
F 2 "" H 10200 10500 60  0000 C CNN
F 3 "" H 10200 10500 60  0000 C CNN
	1    10200 10500
	1    0    0    -1  
$EndComp
Wire Wire Line
	10200 10200 10200 10500
$Comp
L R R45
U 1 1 5850905E
P 10900 8350
F 0 "R45" V 10980 8350 50  0000 C CNN
F 1 "5R" V 10900 8350 50  0000 C CNN
F 2 "IPC7351-Nominal:RESC2012X50" H 10900 8350 60  0001 C CNN
F 3 "" H 10900 8350 60  0000 C CNN
	1    10900 8350
	1    0    0    -1  
$EndComp
Wire Wire Line
	10900 9200 10900 9600
Wire Wire Line
	10900 8800 10900 8600
Wire Wire Line
	10900 8100 10900 7900
$Comp
L LED D36
U 1 1 58509067
P 11200 9000
F 0 "D36" H 11200 9100 50  0000 C CNN
F 1 "LED" H 11200 8900 50  0000 C CNN
F 2 "smd-semi:vsmy2850g" H 11200 9000 60  0001 C CNN
F 3 "" H 11200 9000 60  0000 C CNN
	1    11200 9000
	0    1    1    0   
$EndComp
$Comp
L R R47
U 1 1 5850906D
P 11200 8350
F 0 "R47" V 11280 8350 50  0000 C CNN
F 1 "5R" V 11200 8350 50  0000 C CNN
F 2 "IPC7351-Nominal:RESC2012X50" H 11200 8350 60  0001 C CNN
F 3 "" H 11200 8350 60  0000 C CNN
	1    11200 8350
	1    0    0    -1  
$EndComp
Wire Wire Line
	11200 9200 11200 9600
Wire Wire Line
	11200 8800 11200 8600
Wire Wire Line
	11200 8100 11200 7900
$Comp
L LED D38
U 1 1 58509076
P 11500 9000
F 0 "D38" H 11500 9100 50  0000 C CNN
F 1 "LED" H 11500 8900 50  0000 C CNN
F 2 "smd-semi:vsmy2850g" H 11500 9000 60  0001 C CNN
F 3 "" H 11500 9000 60  0000 C CNN
	1    11500 9000
	0    1    1    0   
$EndComp
$Comp
L R R49
U 1 1 5850907C
P 11500 8350
F 0 "R49" V 11580 8350 50  0000 C CNN
F 1 "5R" V 11500 8350 50  0000 C CNN
F 2 "IPC7351-Nominal:RESC2012X50" H 11500 8350 60  0001 C CNN
F 3 "" H 11500 8350 60  0000 C CNN
	1    11500 8350
	1    0    0    -1  
$EndComp
Wire Wire Line
	11500 9200 11500 9600
Wire Wire Line
	11500 8800 11500 8600
Wire Wire Line
	11500 8100 11500 7900
$Comp
L LED D40
U 1 1 58509085
P 11800 9000
F 0 "D40" H 11800 9100 50  0000 C CNN
F 1 "LED" H 11800 8900 50  0000 C CNN
F 2 "smd-semi:vsmy2850g" H 11800 9000 60  0001 C CNN
F 3 "" H 11800 9000 60  0000 C CNN
	1    11800 9000
	0    1    1    0   
$EndComp
$Comp
L R R51
U 1 1 5850908B
P 11800 8350
F 0 "R51" V 11880 8350 50  0000 C CNN
F 1 "5R" V 11800 8350 50  0000 C CNN
F 2 "IPC7351-Nominal:RESC2012X50" H 11800 8350 60  0001 C CNN
F 3 "" H 11800 8350 60  0000 C CNN
	1    11800 8350
	1    0    0    -1  
$EndComp
Wire Wire Line
	11800 9200 11800 9600
Wire Wire Line
	11800 8800 11800 8600
Wire Wire Line
	11800 8100 11800 7900
$Comp
L LED D42
U 1 1 58509094
P 12100 9000
F 0 "D42" H 12100 9100 50  0000 C CNN
F 1 "LED" H 12100 8900 50  0000 C CNN
F 2 "smd-semi:vsmy2850g" H 12100 9000 60  0001 C CNN
F 3 "" H 12100 9000 60  0000 C CNN
	1    12100 9000
	0    1    1    0   
$EndComp
$Comp
L R R53
U 1 1 5850909A
P 12100 8350
F 0 "R53" V 12180 8350 50  0000 C CNN
F 1 "5R" V 12100 8350 50  0000 C CNN
F 2 "IPC7351-Nominal:RESC2012X50" H 12100 8350 60  0001 C CNN
F 3 "" H 12100 8350 60  0000 C CNN
	1    12100 8350
	1    0    0    -1  
$EndComp
Wire Wire Line
	12100 9200 12100 9600
Wire Wire Line
	12100 8800 12100 8600
Wire Wire Line
	12100 8100 12100 7900
$Comp
L LED D44
U 1 1 585090A3
P 12400 9000
F 0 "D44" H 12400 9100 50  0000 C CNN
F 1 "LED" H 12400 8900 50  0000 C CNN
F 2 "smd-semi:vsmy2850g" H 12400 9000 60  0001 C CNN
F 3 "" H 12400 9000 60  0000 C CNN
	1    12400 9000
	0    1    1    0   
$EndComp
$Comp
L R R55
U 1 1 585090A9
P 12400 8350
F 0 "R55" V 12480 8350 50  0000 C CNN
F 1 "5R" V 12400 8350 50  0000 C CNN
F 2 "IPC7351-Nominal:RESC2012X50" H 12400 8350 60  0001 C CNN
F 3 "" H 12400 8350 60  0000 C CNN
	1    12400 8350
	1    0    0    -1  
$EndComp
Wire Wire Line
	12400 9200 12400 9600
Wire Wire Line
	12400 8800 12400 8600
Wire Wire Line
	12400 8100 12400 7900
$Comp
L LED D46
U 1 1 585090B2
P 12700 9000
F 0 "D46" H 12700 9100 50  0000 C CNN
F 1 "LED" H 12700 8900 50  0000 C CNN
F 2 "smd-semi:vsmy2850g" H 12700 9000 60  0001 C CNN
F 3 "" H 12700 9000 60  0000 C CNN
	1    12700 9000
	0    1    1    0   
$EndComp
$Comp
L R R57
U 1 1 585090B8
P 12700 8350
F 0 "R57" V 12780 8350 50  0000 C CNN
F 1 "5R" V 12700 8350 50  0000 C CNN
F 2 "IPC7351-Nominal:RESC2012X50" H 12700 8350 60  0001 C CNN
F 3 "" H 12700 8350 60  0000 C CNN
	1    12700 8350
	1    0    0    -1  
$EndComp
Wire Wire Line
	12700 9200 12700 9600
Wire Wire Line
	12700 8800 12700 8600
Wire Wire Line
	12700 8100 12700 7900
$Comp
L LED D48
U 1 1 585090C1
P 13000 9000
F 0 "D48" H 13000 9100 50  0000 C CNN
F 1 "LED" H 13000 8900 50  0000 C CNN
F 2 "smd-semi:vsmy2850g" H 13000 9000 60  0001 C CNN
F 3 "" H 13000 9000 60  0000 C CNN
	1    13000 9000
	0    1    1    0   
$EndComp
$Comp
L R R59
U 1 1 585090C7
P 13000 8350
F 0 "R59" V 13080 8350 50  0000 C CNN
F 1 "5R" V 13000 8350 50  0000 C CNN
F 2 "IPC7351-Nominal:RESC2012X50" H 13000 8350 60  0001 C CNN
F 3 "" H 13000 8350 60  0000 C CNN
	1    13000 8350
	1    0    0    -1  
$EndComp
Wire Wire Line
	13000 9200 13000 9600
Wire Wire Line
	13000 8800 13000 8600
Wire Wire Line
	13000 8100 13000 7900
$Comp
L LED D50
U 1 1 585090D0
P 13300 9000
F 0 "D50" H 13300 9100 50  0000 C CNN
F 1 "LED" H 13300 8900 50  0000 C CNN
F 2 "smd-semi:vsmy2850g" H 13300 9000 60  0001 C CNN
F 3 "" H 13300 9000 60  0000 C CNN
	1    13300 9000
	0    1    1    0   
$EndComp
$Comp
L R R61
U 1 1 585090D6
P 13300 8350
F 0 "R61" V 13380 8350 50  0000 C CNN
F 1 "5R" V 13300 8350 50  0000 C CNN
F 2 "IPC7351-Nominal:RESC2012X50" H 13300 8350 60  0001 C CNN
F 3 "" H 13300 8350 60  0000 C CNN
	1    13300 8350
	1    0    0    -1  
$EndComp
Wire Wire Line
	13300 9200 13300 9750
Wire Wire Line
	13300 8800 13300 8600
Wire Wire Line
	13300 8100 13300 7900
$Comp
L LED D52
U 1 1 585090DF
P 13600 9000
F 0 "D52" H 13600 9100 50  0000 C CNN
F 1 "LED" H 13600 8900 50  0000 C CNN
F 2 "smd-semi:vsmy2850g" H 13600 9000 60  0001 C CNN
F 3 "" H 13600 9000 60  0000 C CNN
	1    13600 9000
	0    1    1    0   
$EndComp
$Comp
L R R63
U 1 1 585090E5
P 13600 8350
F 0 "R63" V 13680 8350 50  0000 C CNN
F 1 "5R" V 13600 8350 50  0000 C CNN
F 2 "IPC7351-Nominal:RESC2012X50" H 13600 8350 60  0001 C CNN
F 3 "" H 13600 8350 60  0000 C CNN
	1    13600 8350
	1    0    0    -1  
$EndComp
Wire Wire Line
	13600 9200 13600 9600
Wire Wire Line
	13600 8800 13600 8600
Wire Wire Line
	13600 8100 13600 7900
$Comp
L LED D54
U 1 1 585090EE
P 13900 9000
F 0 "D54" H 13900 9100 50  0000 C CNN
F 1 "LED" H 13900 8900 50  0000 C CNN
F 2 "smd-semi:vsmy2850g" H 13900 9000 60  0001 C CNN
F 3 "" H 13900 9000 60  0000 C CNN
	1    13900 9000
	0    1    1    0   
$EndComp
$Comp
L R R65
U 1 1 585090F4
P 13900 8350
F 0 "R65" V 13980 8350 50  0000 C CNN
F 1 "5R" V 13900 8350 50  0000 C CNN
F 2 "IPC7351-Nominal:RESC2012X50" H 13900 8350 60  0001 C CNN
F 3 "" H 13900 8350 60  0000 C CNN
	1    13900 8350
	1    0    0    -1  
$EndComp
Wire Wire Line
	13900 9200 13900 9600
Wire Wire Line
	13900 8800 13900 8600
Wire Wire Line
	13900 8100 13900 7900
$Comp
L LED D56
U 1 1 585090FD
P 14200 9000
F 0 "D56" H 14200 9100 50  0000 C CNN
F 1 "LED" H 14200 8900 50  0000 C CNN
F 2 "smd-semi:vsmy2850g" H 14200 9000 60  0001 C CNN
F 3 "" H 14200 9000 60  0000 C CNN
	1    14200 9000
	0    1    1    0   
$EndComp
$Comp
L R R67
U 1 1 58509103
P 14200 8350
F 0 "R67" V 14280 8350 50  0000 C CNN
F 1 "5R" V 14200 8350 50  0000 C CNN
F 2 "IPC7351-Nominal:RESC2012X50" H 14200 8350 60  0001 C CNN
F 3 "" H 14200 8350 60  0000 C CNN
	1    14200 8350
	1    0    0    -1  
$EndComp
Wire Wire Line
	14200 9200 14200 9600
Wire Wire Line
	14200 8800 14200 8600
Wire Wire Line
	14200 8100 14200 7900
$Comp
L LED D58
U 1 1 5850910C
P 14500 9000
F 0 "D58" H 14500 9100 50  0000 C CNN
F 1 "LED" H 14500 8900 50  0000 C CNN
F 2 "smd-semi:vsmy2850g" H 14500 9000 60  0001 C CNN
F 3 "" H 14500 9000 60  0000 C CNN
	1    14500 9000
	0    1    1    0   
$EndComp
$Comp
L R R69
U 1 1 58509112
P 14500 8350
F 0 "R69" V 14580 8350 50  0000 C CNN
F 1 "5R" V 14500 8350 50  0000 C CNN
F 2 "IPC7351-Nominal:RESC2012X50" H 14500 8350 60  0001 C CNN
F 3 "" H 14500 8350 60  0000 C CNN
	1    14500 8350
	1    0    0    -1  
$EndComp
Wire Wire Line
	14500 9200 14500 9600
Wire Wire Line
	14500 8800 14500 8600
Wire Wire Line
	14500 8100 14500 7900
$Comp
L LED D60
U 1 1 5850911B
P 14800 9000
F 0 "D60" H 14800 9100 50  0000 C CNN
F 1 "LED" H 14800 8900 50  0000 C CNN
F 2 "smd-semi:vsmy2850g" H 14800 9000 60  0001 C CNN
F 3 "" H 14800 9000 60  0000 C CNN
	1    14800 9000
	0    1    1    0   
$EndComp
$Comp
L R R71
U 1 1 58509121
P 14800 8350
F 0 "R71" V 14880 8350 50  0000 C CNN
F 1 "5R" V 14800 8350 50  0000 C CNN
F 2 "IPC7351-Nominal:RESC2012X50" H 14800 8350 60  0001 C CNN
F 3 "" H 14800 8350 60  0000 C CNN
	1    14800 8350
	1    0    0    -1  
$EndComp
Wire Wire Line
	14800 9200 14800 9600
Wire Wire Line
	14800 8800 14800 8600
Wire Wire Line
	14800 8100 14800 7900
$Comp
L LED D62
U 1 1 5850912A
P 15100 9000
F 0 "D62" H 15100 9100 50  0000 C CNN
F 1 "LED" H 15100 8900 50  0000 C CNN
F 2 "smd-semi:vsmy2850g" H 15100 9000 60  0001 C CNN
F 3 "" H 15100 9000 60  0000 C CNN
	1    15100 9000
	0    1    1    0   
$EndComp
$Comp
L R R73
U 1 1 58509130
P 15100 8350
F 0 "R73" V 15180 8350 50  0000 C CNN
F 1 "5R" V 15100 8350 50  0000 C CNN
F 2 "IPC7351-Nominal:RESC2012X50" H 15100 8350 60  0001 C CNN
F 3 "" H 15100 8350 60  0000 C CNN
	1    15100 8350
	1    0    0    -1  
$EndComp
Wire Wire Line
	15100 9200 15100 9600
Wire Wire Line
	15100 8800 15100 8600
Wire Wire Line
	15100 8100 15100 7900
$Comp
L LED D64
U 1 1 58509139
P 15400 9000
F 0 "D64" H 15400 9100 50  0000 C CNN
F 1 "LED" H 15400 8900 50  0000 C CNN
F 2 "smd-semi:vsmy2850g" H 15400 9000 60  0001 C CNN
F 3 "" H 15400 9000 60  0000 C CNN
	1    15400 9000
	0    1    1    0   
$EndComp
$Comp
L R R75
U 1 1 5850913F
P 15400 8350
F 0 "R75" V 15480 8350 50  0000 C CNN
F 1 "5R" V 15400 8350 50  0000 C CNN
F 2 "IPC7351-Nominal:RESC2012X50" H 15400 8350 60  0001 C CNN
F 3 "" H 15400 8350 60  0000 C CNN
	1    15400 8350
	1    0    0    -1  
$EndComp
Wire Wire Line
	15400 9600 15400 9200
Wire Wire Line
	15400 8800 15400 8600
Wire Wire Line
	15400 7900 15400 8100
$Comp
L LED D33
U 1 1 58509148
P 10900 6900
F 0 "D33" H 10900 7000 50  0000 C CNN
F 1 "LED" H 10900 6800 50  0000 C CNN
F 2 "smd-semi:vsmy2850g" H 10900 6900 60  0001 C CNN
F 3 "" H 10900 6900 60  0000 C CNN
	1    10900 6900
	0    1    1    0   
$EndComp
$Comp
L R R44
U 1 1 5850914E
P 10900 6250
F 0 "R44" V 10980 6250 50  0000 C CNN
F 1 "5R" V 10900 6250 50  0000 C CNN
F 2 "IPC7351-Nominal:RESC2012X50" H 10900 6250 60  0001 C CNN
F 3 "" H 10900 6250 60  0000 C CNN
	1    10900 6250
	1    0    0    -1  
$EndComp
Wire Wire Line
	10900 7100 10900 7500
Wire Wire Line
	10900 6700 10900 6500
Wire Wire Line
	10900 6000 10900 5800
$Comp
L LED D35
U 1 1 58509157
P 11200 6900
F 0 "D35" H 11200 7000 50  0000 C CNN
F 1 "LED" H 11200 6800 50  0000 C CNN
F 2 "smd-semi:vsmy2850g" H 11200 6900 60  0001 C CNN
F 3 "" H 11200 6900 60  0000 C CNN
	1    11200 6900
	0    1    1    0   
$EndComp
$Comp
L R R46
U 1 1 5850915D
P 11200 6250
F 0 "R46" V 11280 6250 50  0000 C CNN
F 1 "5R" V 11200 6250 50  0000 C CNN
F 2 "IPC7351-Nominal:RESC2012X50" H 11200 6250 60  0001 C CNN
F 3 "" H 11200 6250 60  0000 C CNN
	1    11200 6250
	1    0    0    -1  
$EndComp
Wire Wire Line
	11200 7100 11200 7500
Wire Wire Line
	11200 6700 11200 6500
Wire Wire Line
	11200 6000 11200 5800
$Comp
L LED D37
U 1 1 58509166
P 11500 6900
F 0 "D37" H 11500 7000 50  0000 C CNN
F 1 "LED" H 11500 6800 50  0000 C CNN
F 2 "smd-semi:vsmy2850g" H 11500 6900 60  0001 C CNN
F 3 "" H 11500 6900 60  0000 C CNN
	1    11500 6900
	0    1    1    0   
$EndComp
$Comp
L R R48
U 1 1 5850916C
P 11500 6250
F 0 "R48" V 11580 6250 50  0000 C CNN
F 1 "5R" V 11500 6250 50  0000 C CNN
F 2 "IPC7351-Nominal:RESC2012X50" H 11500 6250 60  0001 C CNN
F 3 "" H 11500 6250 60  0000 C CNN
	1    11500 6250
	1    0    0    -1  
$EndComp
Wire Wire Line
	11500 7100 11500 7500
Wire Wire Line
	11500 6700 11500 6500
Wire Wire Line
	11500 6000 11500 5800
$Comp
L LED D39
U 1 1 58509175
P 11800 6900
F 0 "D39" H 11800 7000 50  0000 C CNN
F 1 "LED" H 11800 6800 50  0000 C CNN
F 2 "smd-semi:vsmy2850g" H 11800 6900 60  0001 C CNN
F 3 "" H 11800 6900 60  0000 C CNN
	1    11800 6900
	0    1    1    0   
$EndComp
$Comp
L R R50
U 1 1 5850917B
P 11800 6250
F 0 "R50" V 11880 6250 50  0000 C CNN
F 1 "5R" V 11800 6250 50  0000 C CNN
F 2 "IPC7351-Nominal:RESC2012X50" H 11800 6250 60  0001 C CNN
F 3 "" H 11800 6250 60  0000 C CNN
	1    11800 6250
	1    0    0    -1  
$EndComp
Wire Wire Line
	11800 7100 11800 7500
Wire Wire Line
	11800 6700 11800 6500
Wire Wire Line
	11800 6000 11800 5800
$Comp
L LED D41
U 1 1 58509184
P 12100 6900
F 0 "D41" H 12100 7000 50  0000 C CNN
F 1 "LED" H 12100 6800 50  0000 C CNN
F 2 "smd-semi:vsmy2850g" H 12100 6900 60  0001 C CNN
F 3 "" H 12100 6900 60  0000 C CNN
	1    12100 6900
	0    1    1    0   
$EndComp
$Comp
L R R52
U 1 1 5850918A
P 12100 6250
F 0 "R52" V 12180 6250 50  0000 C CNN
F 1 "5R" V 12100 6250 50  0000 C CNN
F 2 "IPC7351-Nominal:RESC2012X50" H 12100 6250 60  0001 C CNN
F 3 "" H 12100 6250 60  0000 C CNN
	1    12100 6250
	1    0    0    -1  
$EndComp
Wire Wire Line
	12100 7100 12100 7500
Wire Wire Line
	12100 6700 12100 6500
Wire Wire Line
	12100 6000 12100 5800
$Comp
L LED D43
U 1 1 58509193
P 12400 6900
F 0 "D43" H 12400 7000 50  0000 C CNN
F 1 "LED" H 12400 6800 50  0000 C CNN
F 2 "smd-semi:vsmy2850g" H 12400 6900 60  0001 C CNN
F 3 "" H 12400 6900 60  0000 C CNN
	1    12400 6900
	0    1    1    0   
$EndComp
$Comp
L R R54
U 1 1 58509199
P 12400 6250
F 0 "R54" V 12480 6250 50  0000 C CNN
F 1 "5R" V 12400 6250 50  0000 C CNN
F 2 "IPC7351-Nominal:RESC2012X50" H 12400 6250 60  0001 C CNN
F 3 "" H 12400 6250 60  0000 C CNN
	1    12400 6250
	1    0    0    -1  
$EndComp
Wire Wire Line
	12400 7100 12400 7500
Wire Wire Line
	12400 6700 12400 6500
Wire Wire Line
	12400 6000 12400 5800
$Comp
L LED D45
U 1 1 585091A2
P 12700 6900
F 0 "D45" H 12700 7000 50  0000 C CNN
F 1 "LED" H 12700 6800 50  0000 C CNN
F 2 "smd-semi:vsmy2850g" H 12700 6900 60  0001 C CNN
F 3 "" H 12700 6900 60  0000 C CNN
	1    12700 6900
	0    1    1    0   
$EndComp
$Comp
L R R56
U 1 1 585091A8
P 12700 6250
F 0 "R56" V 12780 6250 50  0000 C CNN
F 1 "5R" V 12700 6250 50  0000 C CNN
F 2 "IPC7351-Nominal:RESC2012X50" H 12700 6250 60  0001 C CNN
F 3 "" H 12700 6250 60  0000 C CNN
	1    12700 6250
	1    0    0    -1  
$EndComp
Wire Wire Line
	12700 7100 12700 7500
Wire Wire Line
	12700 6700 12700 6500
Wire Wire Line
	12700 6000 12700 5800
$Comp
L LED D47
U 1 1 585091B1
P 13000 6900
F 0 "D47" H 13000 7000 50  0000 C CNN
F 1 "LED" H 13000 6800 50  0000 C CNN
F 2 "smd-semi:vsmy2850g" H 13000 6900 60  0001 C CNN
F 3 "" H 13000 6900 60  0000 C CNN
	1    13000 6900
	0    1    1    0   
$EndComp
$Comp
L R R58
U 1 1 585091B7
P 13000 6250
F 0 "R58" V 13080 6250 50  0000 C CNN
F 1 "5R" V 13000 6250 50  0000 C CNN
F 2 "IPC7351-Nominal:RESC2012X50" H 13000 6250 60  0001 C CNN
F 3 "" H 13000 6250 60  0000 C CNN
	1    13000 6250
	1    0    0    -1  
$EndComp
Wire Wire Line
	13000 7100 13000 7500
Wire Wire Line
	13000 6700 13000 6500
Wire Wire Line
	13000 6000 13000 5800
$Comp
L LED D49
U 1 1 585091C0
P 13300 6900
F 0 "D49" H 13300 7000 50  0000 C CNN
F 1 "LED" H 13300 6800 50  0000 C CNN
F 2 "smd-semi:vsmy2850g" H 13300 6900 60  0001 C CNN
F 3 "" H 13300 6900 60  0000 C CNN
	1    13300 6900
	0    1    1    0   
$EndComp
$Comp
L R R60
U 1 1 585091C6
P 13300 6250
F 0 "R60" V 13380 6250 50  0000 C CNN
F 1 "5R" V 13300 6250 50  0000 C CNN
F 2 "IPC7351-Nominal:RESC2012X50" H 13300 6250 60  0001 C CNN
F 3 "" H 13300 6250 60  0000 C CNN
	1    13300 6250
	1    0    0    -1  
$EndComp
Wire Wire Line
	13300 7100 13300 7500
Wire Wire Line
	13300 6700 13300 6500
Wire Wire Line
	13300 6000 13300 5800
$Comp
L LED D51
U 1 1 585091CF
P 13600 6900
F 0 "D51" H 13600 7000 50  0000 C CNN
F 1 "LED" H 13600 6800 50  0000 C CNN
F 2 "smd-semi:vsmy2850g" H 13600 6900 60  0001 C CNN
F 3 "" H 13600 6900 60  0000 C CNN
	1    13600 6900
	0    1    1    0   
$EndComp
$Comp
L R R62
U 1 1 585091D5
P 13600 6250
F 0 "R62" V 13680 6250 50  0000 C CNN
F 1 "5R" V 13600 6250 50  0000 C CNN
F 2 "IPC7351-Nominal:RESC2012X50" H 13600 6250 60  0001 C CNN
F 3 "" H 13600 6250 60  0000 C CNN
	1    13600 6250
	1    0    0    -1  
$EndComp
Wire Wire Line
	13600 7100 13600 7500
Wire Wire Line
	13600 6700 13600 6500
Wire Wire Line
	13600 6000 13600 5800
$Comp
L LED D53
U 1 1 585091DE
P 13900 6900
F 0 "D53" H 13900 7000 50  0000 C CNN
F 1 "LED" H 13900 6800 50  0000 C CNN
F 2 "smd-semi:vsmy2850g" H 13900 6900 60  0001 C CNN
F 3 "" H 13900 6900 60  0000 C CNN
	1    13900 6900
	0    1    1    0   
$EndComp
$Comp
L R R64
U 1 1 585091E4
P 13900 6250
F 0 "R64" V 13980 6250 50  0000 C CNN
F 1 "5R" V 13900 6250 50  0000 C CNN
F 2 "IPC7351-Nominal:RESC2012X50" H 13900 6250 60  0001 C CNN
F 3 "" H 13900 6250 60  0000 C CNN
	1    13900 6250
	1    0    0    -1  
$EndComp
Wire Wire Line
	13900 7100 13900 7500
Wire Wire Line
	13900 6700 13900 6500
Wire Wire Line
	13900 6000 13900 5800
$Comp
L LED D55
U 1 1 585091ED
P 14200 6900
F 0 "D55" H 14200 7000 50  0000 C CNN
F 1 "LED" H 14200 6800 50  0000 C CNN
F 2 "smd-semi:vsmy2850g" H 14200 6900 60  0001 C CNN
F 3 "" H 14200 6900 60  0000 C CNN
	1    14200 6900
	0    1    1    0   
$EndComp
$Comp
L R R66
U 1 1 585091F3
P 14200 6250
F 0 "R66" V 14280 6250 50  0000 C CNN
F 1 "5R" V 14200 6250 50  0000 C CNN
F 2 "IPC7351-Nominal:RESC2012X50" H 14200 6250 60  0001 C CNN
F 3 "" H 14200 6250 60  0000 C CNN
	1    14200 6250
	1    0    0    -1  
$EndComp
Wire Wire Line
	14200 7100 14200 7500
Wire Wire Line
	14200 6700 14200 6500
Wire Wire Line
	14200 6000 14200 5800
$Comp
L LED D57
U 1 1 585091FC
P 14500 6900
F 0 "D57" H 14500 7000 50  0000 C CNN
F 1 "LED" H 14500 6800 50  0000 C CNN
F 2 "smd-semi:vsmy2850g" H 14500 6900 60  0001 C CNN
F 3 "" H 14500 6900 60  0000 C CNN
	1    14500 6900
	0    1    1    0   
$EndComp
$Comp
L R R68
U 1 1 58509202
P 14500 6250
F 0 "R68" V 14580 6250 50  0000 C CNN
F 1 "5R" V 14500 6250 50  0000 C CNN
F 2 "IPC7351-Nominal:RESC2012X50" H 14500 6250 60  0001 C CNN
F 3 "" H 14500 6250 60  0000 C CNN
	1    14500 6250
	1    0    0    -1  
$EndComp
Wire Wire Line
	14500 7100 14500 7500
Wire Wire Line
	14500 6700 14500 6500
Wire Wire Line
	14500 6000 14500 5800
$Comp
L LED D59
U 1 1 5850920B
P 14800 6900
F 0 "D59" H 14800 7000 50  0000 C CNN
F 1 "LED" H 14800 6800 50  0000 C CNN
F 2 "smd-semi:vsmy2850g" H 14800 6900 60  0001 C CNN
F 3 "" H 14800 6900 60  0000 C CNN
	1    14800 6900
	0    1    1    0   
$EndComp
$Comp
L R R70
U 1 1 58509211
P 14800 6250
F 0 "R70" V 14880 6250 50  0000 C CNN
F 1 "5R" V 14800 6250 50  0000 C CNN
F 2 "IPC7351-Nominal:RESC2012X50" H 14800 6250 60  0001 C CNN
F 3 "" H 14800 6250 60  0000 C CNN
	1    14800 6250
	1    0    0    -1  
$EndComp
Wire Wire Line
	14800 7100 14800 7500
Wire Wire Line
	14800 6700 14800 6500
Wire Wire Line
	14800 6000 14800 5800
$Comp
L LED D61
U 1 1 5850921A
P 15100 6900
F 0 "D61" H 15100 7000 50  0000 C CNN
F 1 "LED" H 15100 6800 50  0000 C CNN
F 2 "smd-semi:vsmy2850g" H 15100 6900 60  0001 C CNN
F 3 "" H 15100 6900 60  0000 C CNN
	1    15100 6900
	0    1    1    0   
$EndComp
$Comp
L R R72
U 1 1 58509220
P 15100 6250
F 0 "R72" V 15180 6250 50  0000 C CNN
F 1 "5R" V 15100 6250 50  0000 C CNN
F 2 "IPC7351-Nominal:RESC2012X50" H 15100 6250 60  0001 C CNN
F 3 "" H 15100 6250 60  0000 C CNN
	1    15100 6250
	1    0    0    -1  
$EndComp
Wire Wire Line
	15100 7100 15100 7500
Wire Wire Line
	15100 6700 15100 6500
Wire Wire Line
	15100 6000 15100 5800
$Comp
L LED D63
U 1 1 58509229
P 15400 6900
F 0 "D63" H 15400 7000 50  0000 C CNN
F 1 "LED" H 15400 6800 50  0000 C CNN
F 2 "smd-semi:vsmy2850g" H 15400 6900 60  0001 C CNN
F 3 "" H 15400 6900 60  0000 C CNN
	1    15400 6900
	0    1    1    0   
$EndComp
$Comp
L R R74
U 1 1 5850922F
P 15400 6250
F 0 "R74" V 15480 6250 50  0000 C CNN
F 1 "5R" V 15400 6250 50  0000 C CNN
F 2 "IPC7351-Nominal:RESC2012X50" H 15400 6250 60  0001 C CNN
F 3 "" H 15400 6250 60  0000 C CNN
	1    15400 6250
	1    0    0    -1  
$EndComp
Wire Wire Line
	15400 7500 15400 7100
Wire Wire Line
	15400 6700 15400 6500
Wire Wire Line
	10200 5800 10200 7900
$Comp
L CP1 C8
U 1 1 5850923F
P 8900 8700
F 0 "C8" H 8950 8800 50  0000 L CNN
F 1 "47u" H 8950 8600 50  0000 L CNN
F 2 "IPC7351-Nominal:CAPC3216X105" H 8900 8700 60  0001 C CNN
F 3 "" H 8900 8700 60  0000 C CNN
	1    8900 8700
	1    0    0    -1  
$EndComp
$Comp
L CP1 C9
U 1 1 58509245
P 9200 8700
F 0 "C9" H 9250 8800 50  0000 L CNN
F 1 "47u" H 9250 8600 50  0000 L CNN
F 2 "IPC7351-Nominal:CAPC3216X105" H 9200 8700 60  0001 C CNN
F 3 "" H 9200 8700 60  0000 C CNN
	1    9200 8700
	1    0    0    -1  
$EndComp
$Comp
L CP1 C12
U 1 1 5850924B
P 9500 8700
F 0 "C12" H 9550 8800 50  0000 L CNN
F 1 "47u" H 9550 8600 50  0000 L CNN
F 2 "IPC7351-Nominal:CAPC3216X105" H 9500 8700 60  0001 C CNN
F 3 "" H 9500 8700 60  0000 C CNN
	1    9500 8700
	1    0    0    -1  
$EndComp
$Comp
L CP1 C13
U 1 1 58509251
P 9800 8700
F 0 "C13" H 9850 8800 50  0000 L CNN
F 1 "47u" H 9850 8600 50  0000 L CNN
F 2 "IPC7351-Nominal:CAPC3216X105" H 9800 8700 60  0001 C CNN
F 3 "" H 9800 8700 60  0000 C CNN
	1    9800 8700
	1    0    0    -1  
$EndComp
$Comp
L GND #PWR09
U 1 1 58509257
P 9350 9200
F 0 "#PWR09" H 9350 9200 30  0001 C CNN
F 1 "GND" H 9350 9130 30  0001 C CNN
F 2 "" H 9350 9200 60  0000 C CNN
F 3 "" H 9350 9200 60  0000 C CNN
	1    9350 9200
	1    0    0    -1  
$EndComp
Wire Wire Line
	8900 8900 8900 9000
Wire Wire Line
	8900 9000 9800 9000
Wire Wire Line
	9800 9000 9800 8900
Wire Wire Line
	8900 7900 8900 8500
Wire Wire Line
	9200 8500 9200 7900
Connection ~ 9200 7900
Wire Wire Line
	9500 7900 9500 8500
Connection ~ 9500 7900
Wire Wire Line
	9800 7900 9800 8500
Connection ~ 9800 7900
Wire Wire Line
	9200 8900 9200 9000
Connection ~ 9200 9000
Wire Wire Line
	9500 8900 9500 9000
Connection ~ 9500 9000
Wire Wire Line
	9350 9000 9350 9200
Connection ~ 9350 9000
Wire Wire Line
	9900 10000 9450 10000
$Comp
L +5V #PWR010
U 1 1 58509270
P 9050 7850
F 0 "#PWR010" H 9050 7700 60  0001 C CNN
F 1 "+5V" H 9050 7990 60  0000 C CNN
F 2 "" H 9050 7850 60  0000 C CNN
F 3 "" H 9050 7850 60  0000 C CNN
	1    9050 7850
	1    0    0    -1  
$EndComp
$Comp
L +5V #PWR011
U 1 1 5850927C
P 9150 9600
F 0 "#PWR011" H 9150 9450 60  0001 C CNN
F 1 "+5V" H 9150 9740 60  0000 C CNN
F 2 "" H 9150 9600 60  0000 C CNN
F 3 "" H 9150 9600 60  0000 C CNN
	1    9150 9600
	1    0    0    -1  
$EndComp
$Comp
L 74LVC1G17 U3
U 1 1 58509282
P 9000 9700
F 0 "U3" H 9250 9225 60  0000 C CNN
F 1 "74LVC1G17" H 8800 9650 60  0000 C CNN
F 2 "w_smd_trans:sot23-5" H 9000 9700 60  0001 C CNN
F 3 "" H 9000 9700 60  0001 C CNN
	1    9000 9700
	1    0    0    -1  
$EndComp
Wire Wire Line
	9150 9600 9150 9750
$Comp
L GND #PWR012
U 1 1 58509289
P 9150 10500
F 0 "#PWR012" H 9150 10500 30  0001 C CNN
F 1 "GND" H 9150 10430 30  0001 C CNN
F 2 "" H 9150 10500 60  0000 C CNN
F 3 "" H 9150 10500 60  0000 C CNN
	1    9150 10500
	1    0    0    -1  
$EndComp
Wire Wire Line
	9150 10250 9150 10500
$Comp
L CSmall C11
U 1 1 58509290
P 9350 9650
F 0 "C11" H 9360 9720 50  0000 L CNN
F 1 "100n" H 9360 9570 50  0000 L CNN
F 2 "IPC7351-Nominal:CAPC2012X70" H 9350 9650 60  0001 C CNN
F 3 "" H 9350 9650 60  0000 C CNN
	1    9350 9650
	0    1    1    0   
$EndComp
Wire Wire Line
	9250 9650 9150 9650
Connection ~ 9150 9650
$Comp
L GND #PWR013
U 1 1 58509298
P 9550 9700
F 0 "#PWR013" H 9550 9700 30  0001 C CNN
F 1 "GND" H 9550 9630 30  0001 C CNN
F 2 "" H 9550 9700 60  0000 C CNN
F 3 "" H 9550 9700 60  0000 C CNN
	1    9550 9700
	1    0    0    -1  
$EndComp
Wire Wire Line
	9450 9650 9550 9650
Wire Wire Line
	9550 9650 9550 9700
Wire Wire Line
	8000 5000 8800 5000
Wire Wire Line
	8400 10000 8800 10000
$Comp
L BARREL_JACK CON1
U 1 1 58509EBF
P 2600 3700
F 0 "CON1" H 2600 3950 60  0000 C CNN
F 1 "BARREL_JACK" H 2600 3500 60  0000 C CNN
F 2 "conn-cui:wirth_barrel_5_5_2_1" H 2600 3700 60  0001 C CNN
F 3 "" H 2600 3700 60  0001 C CNN
	1    2600 3700
	1    0    0    -1  
$EndComp
$Comp
L CONN_5X2 P1
U 1 1 5850A0A4
P 5500 5200
F 0 "P1" H 5500 5500 60  0000 C CNN
F 1 "CONN_5X2" V 5500 5200 50  0000 C CNN
F 2 "conn-100mil:CONN-100MIL-M-2x5" H 5500 5200 60  0001 C CNN
F 3 "" H 5500 5200 60  0001 C CNN
	1    5500 5200
	1    0    0    -1  
$EndComp
$Comp
L Rsmall R41
U 1 1 5850A407
P 7850 5000
F 0 "R41" V 7930 5000 50  0000 C CNN
F 1 "0R" V 7850 5000 50  0000 C CNN
F 2 "IPC7351-Nominal:RESC2012X50" V 7780 5000 30  0001 C CNN
F 3 "" H 7850 5000 30  0000 C CNN
	1    7850 5000
	0    1    1    0   
$EndComp
Connection ~ 8400 5000
$Comp
L Rsmall R39
U 1 1 5850A7BC
P 7400 5200
F 0 "R39" V 7480 5200 50  0000 C CNN
F 1 "100R" V 7400 5200 50  0000 C CNN
F 2 "IPC7351-Nominal:RESC2012X50" V 7330 5200 30  0001 C CNN
F 3 "" H 7400 5200 30  0000 C CNN
	1    7400 5200
	1    0    0    -1  
$EndComp
$Comp
L CSmall C6
U 1 1 5850A9A6
P 7400 5500
F 0 "C6" H 7410 5570 50  0000 L CNN
F 1 "100p" H 7410 5420 50  0000 L CNN
F 2 "IPC7351-Nominal:CAPC2012X70" H 7400 5500 60  0001 C CNN
F 3 "" H 7400 5500 60  0000 C CNN
	1    7400 5500
	-1   0    0    1   
$EndComp
$Comp
L GND #PWR014
U 1 1 5850AB8F
P 7400 5650
F 0 "#PWR014" H 7400 5650 30  0001 C CNN
F 1 "GND" H 7400 5580 30  0001 C CNN
F 2 "" H 7400 5650 60  0000 C CNN
F 3 "" H 7400 5650 60  0000 C CNN
	1    7400 5650
	1    0    0    -1  
$EndComp
Wire Wire Line
	7400 5050 7400 5000
Wire Wire Line
	6900 5000 7700 5000
Wire Wire Line
	7400 5350 7400 5400
Wire Wire Line
	7400 5600 7400 5650
Wire Wire Line
	5900 5000 6150 5000
Wire Wire Line
	6150 5000 6150 6100
$Comp
L GND #PWR015
U 1 1 5850C76D
P 6150 6100
F 0 "#PWR015" H 6150 6100 30  0001 C CNN
F 1 "GND" H 6150 6030 30  0001 C CNN
F 2 "" H 6150 6100 60  0000 C CNN
F 3 "" H 6150 6100 60  0000 C CNN
	1    6150 6100
	1    0    0    -1  
$EndComp
Wire Wire Line
	5900 5100 6150 5100
Connection ~ 6150 5100
Wire Wire Line
	5900 5200 6150 5200
Connection ~ 6150 5200
Wire Wire Line
	5900 5300 6150 5300
Connection ~ 6150 5300
$Comp
L +5V #PWR016
U 1 1 5850D726
P 4650 4150
F 0 "#PWR016" H 4650 4000 60  0001 C CNN
F 1 "+5V" H 4650 4290 60  0000 C CNN
F 2 "" H 4650 4150 60  0000 C CNN
F 3 "" H 4650 4150 60  0000 C CNN
	1    4650 4150
	1    0    0    -1  
$EndComp
Wire Wire Line
	4650 5400 5100 5400
Wire Wire Line
	4650 5300 5100 5300
Connection ~ 4650 5300
$Comp
L Rsmall R33
U 1 1 5850E0DF
P 3650 5000
F 0 "R33" V 3700 5150 50  0000 C CNN
F 1 "100R" V 3650 5000 50  0000 C CNN
F 2 "IPC7351-Nominal:RESC2012X50" V 3580 5000 30  0001 C CNN
F 3 "" H 3650 5000 30  0000 C CNN
	1    3650 5000
	0    1    1    0   
$EndComp
$Comp
L Rsmall R34
U 1 1 5850E919
P 3650 5100
F 0 "R34" V 3700 5250 50  0000 C CNN
F 1 "100R" V 3650 5100 50  0000 C CNN
F 2 "IPC7351-Nominal:RESC2012X50" V 3580 5100 30  0001 C CNN
F 3 "" H 3650 5100 30  0000 C CNN
	1    3650 5100
	0    1    1    0   
$EndComp
$Comp
L Rsmall R35
U 1 1 5850EAE6
P 3650 5200
F 0 "R35" V 3700 5350 50  0000 C CNN
F 1 "100R" V 3650 5200 50  0000 C CNN
F 2 "IPC7351-Nominal:RESC2012X50" V 3580 5200 30  0001 C CNN
F 3 "" H 3650 5200 30  0000 C CNN
	1    3650 5200
	0    1    1    0   
$EndComp
$Comp
L Rsmall R36
U 1 1 5850ECB6
P 5500 4450
F 0 "R36" V 5550 4650 50  0000 C CNN
F 1 "0R" V 5500 4450 50  0000 C CNN
F 2 "IPC7351-Nominal:RESC2012X50" V 5430 4450 30  0001 C CNN
F 3 "" H 5500 4450 30  0000 C CNN
	1    5500 4450
	0    1    1    0   
$EndComp
$Comp
L Rsmall R37
U 1 1 5850EE96
P 5500 4550
F 0 "R37" V 5550 4750 50  0000 C CNN
F 1 "0R" V 5500 4550 50  0000 C CNN
F 2 "IPC7351-Nominal:RESC2012X50" V 5430 4550 30  0001 C CNN
F 3 "" H 5500 4550 30  0000 C CNN
	1    5500 4550
	0    1    1    0   
$EndComp
$Comp
L Rsmall R38
U 1 1 5850F06C
P 5500 4650
F 0 "R38" V 5550 4850 50  0000 C CNN
F 1 "0R" V 5500 4650 50  0000 C CNN
F 2 "IPC7351-Nominal:RESC2012X50" V 5430 4650 30  0001 C CNN
F 3 "" H 5500 4650 30  0000 C CNN
	1    5500 4650
	0    1    1    0   
$EndComp
Wire Wire Line
	3800 5000 5100 5000
Wire Wire Line
	3800 5100 5100 5100
Wire Wire Line
	3800 5200 5100 5200
Wire Wire Line
	5350 4650 5050 4650
Wire Wire Line
	5050 4650 5050 5200
Connection ~ 5050 5200
Wire Wire Line
	5000 5100 5000 4550
Wire Wire Line
	5000 4550 5350 4550
Connection ~ 5000 5100
Wire Wire Line
	4950 5000 4950 4450
Wire Wire Line
	4950 4450 5350 4450
Connection ~ 4950 5000
$Comp
L CP1 C5
U 1 1 585145B1
P 3250 3900
F 0 "C5" H 3300 4000 50  0000 L CNN
F 1 "47u" H 3300 3800 50  0000 L CNN
F 2 "IPC7351-Nominal:CAPC3216X105" H 3250 3900 60  0001 C CNN
F 3 "" H 3250 3900 60  0000 C CNN
	1    3250 3900
	1    0    0    -1  
$EndComp
$Comp
L GND #PWR017
U 1 1 58514868
P 3250 4300
F 0 "#PWR017" H 3250 4300 30  0001 C CNN
F 1 "GND" H 3250 4230 30  0001 C CNN
F 2 "" H 3250 4300 60  0000 C CNN
F 3 "" H 3250 4300 60  0000 C CNN
	1    3250 4300
	1    0    0    -1  
$EndComp
Wire Wire Line
	3250 4100 3250 4300
$Comp
L Rsmall R43
U 1 1 58515BB2
P 8400 5450
F 0 "R43" V 8480 5450 50  0000 C CNN
F 1 "0R" V 8400 5450 50  0000 C CNN
F 2 "IPC7351-Nominal:RESC2012X50" V 8330 5450 30  0001 C CNN
F 3 "" H 8400 5450 30  0000 C CNN
	1    8400 5450
	-1   0    0    1   
$EndComp
Wire Wire Line
	8400 5300 8400 5000
Wire Wire Line
	8400 5600 8400 10000
Wire Wire Line
	8000 5950 8400 5950
$Comp
L Rsmall R42
U 1 1 5851781B
P 7850 5950
F 0 "R42" V 7930 5950 50  0000 C CNN
F 1 "0R" V 7850 5950 50  0000 C CNN
F 2 "IPC7351-Nominal:RESC2012X50" V 7780 5950 30  0001 C CNN
F 3 "" H 7850 5950 30  0000 C CNN
	1    7850 5950
	0    1    1    0   
$EndComp
$Comp
L Rsmall R40
U 1 1 58517821
P 7400 6150
F 0 "R40" V 7480 6150 50  0000 C CNN
F 1 "100R" V 7400 6150 50  0000 C CNN
F 2 "IPC7351-Nominal:RESC2012X50" V 7330 6150 30  0001 C CNN
F 3 "" H 7400 6150 30  0000 C CNN
	1    7400 6150
	1    0    0    -1  
$EndComp
$Comp
L CSmall C7
U 1 1 58517827
P 7400 6450
F 0 "C7" H 7410 6520 50  0000 L CNN
F 1 "100p" H 7410 6370 50  0000 L CNN
F 2 "IPC7351-Nominal:CAPC2012X70" H 7400 6450 60  0001 C CNN
F 3 "" H 7400 6450 60  0000 C CNN
	1    7400 6450
	-1   0    0    1   
$EndComp
$Comp
L GND #PWR018
U 1 1 5851782D
P 7400 6600
F 0 "#PWR018" H 7400 6600 30  0001 C CNN
F 1 "GND" H 7400 6530 30  0001 C CNN
F 2 "" H 7400 6600 60  0000 C CNN
F 3 "" H 7400 6600 60  0000 C CNN
	1    7400 6600
	1    0    0    -1  
$EndComp
Wire Wire Line
	7400 6000 7400 5950
Wire Wire Line
	6900 5950 7700 5950
Wire Wire Line
	7400 6300 7400 6350
Wire Wire Line
	7400 6550 7400 6600
Wire Wire Line
	5650 4450 5850 4450
Wire Wire Line
	5850 4450 5850 4650
Wire Wire Line
	5650 4650 6900 4650
Wire Wire Line
	5650 4550 5850 4550
Connection ~ 5850 4550
Wire Wire Line
	6900 4650 6900 5950
Connection ~ 7400 5000
Connection ~ 5850 4650
Connection ~ 7400 5950
Connection ~ 6900 5000
$Comp
L NANO U1
U 1 1 5851A3CB
P 3050 5550
F 0 "U1" H 3050 3900 60  0000 C CNN
F 1 "NANO" H 3050 5600 60  0000 C CNN
F 2 "dip-sip:DIP-30_0_ELL" H 3050 5550 60  0001 C CNN
F 3 "" H 3050 5550 60  0001 C CNN
	1    3050 5550
	1    0    0    -1  
$EndComp
$Comp
L +5V #PWR019
U 1 1 5851C152
P 3250 3500
F 0 "#PWR019" H 3250 3350 60  0001 C CNN
F 1 "+5V" H 3250 3640 60  0000 C CNN
F 2 "" H 3250 3500 60  0000 C CNN
F 3 "" H 3250 3500 60  0000 C CNN
	1    3250 3500
	1    0    0    -1  
$EndComp
Wire Wire Line
	2900 3600 3250 3600
Wire Wire Line
	3250 3500 3250 3700
Wire Wire Line
	4650 4150 4650 5500
Connection ~ 3250 3600
Wire Wire Line
	2900 3700 3050 3700
Wire Wire Line
	3050 3700 3050 4200
Wire Wire Line
	2850 4200 3250 4200
Connection ~ 3250 4200
Wire Wire Line
	2900 3800 3050 3800
Connection ~ 3050 3800
$Comp
L +5V #PWR020
U 1 1 5851F0B7
P 4050 5850
F 0 "#PWR020" H 4050 5700 60  0001 C CNN
F 1 "+5V" H 4050 5990 60  0000 C CNN
F 2 "" H 4050 5850 60  0000 C CNN
F 3 "" H 4050 5850 60  0000 C CNN
	1    4050 5850
	1    0    0    -1  
$EndComp
Wire Wire Line
	4050 5950 4050 5850
$Comp
L GND #PWR021
U 1 1 5851FB5E
P 3700 5750
F 0 "#PWR021" H 3700 5750 30  0001 C CNN
F 1 "GND" H 3700 5680 30  0001 C CNN
F 2 "" H 3700 5750 60  0000 C CNN
F 3 "" H 3700 5750 60  0000 C CNN
	1    3700 5750
	1    0    0    -1  
$EndComp
$Comp
L GND #PWR022
U 1 1 585204BA
P 2400 5950
F 0 "#PWR022" H 2400 5950 30  0001 C CNN
F 1 "GND" H 2400 5880 30  0001 C CNN
F 2 "" H 2400 5950 60  0000 C CNN
F 3 "" H 2400 5950 60  0000 C CNN
	1    2400 5950
	1    0    0    -1  
$EndComp
Wire Wire Line
	3500 5750 3700 5750
Wire Wire Line
	2600 5950 2400 5950
Wire Wire Line
	3500 5200 1900 5200
Wire Wire Line
	1900 5200 1900 6650
Wire Wire Line
	1900 6650 2600 6650
Wire Wire Line
	3500 5100 1800 5100
Wire Wire Line
	1800 5100 1800 6750
Wire Wire Line
	1800 6750 2600 6750
Wire Wire Line
	3500 5000 1700 5000
Wire Wire Line
	1700 5000 1700 6850
Wire Wire Line
	1700 6850 2600 6850
Wire Notes Line
	1450 3100 4250 3100
Wire Notes Line
	4250 3100 4250 7550
Wire Notes Line
	4250 7550 1450 7550
Wire Notes Line
	1450 7550 1450 3100
Text Notes 1500 7500 0    60   ~ 0
No Fit for daughter boards
$Comp
L Rsmall R76
U 1 1 58526D51
P 9100 5850
F 0 "R76" V 9180 5850 50  0000 C CNN
F 1 "0R" V 9100 5850 50  0000 C CNN
F 2 "IPC7351-Nominal:RESC2012X50" V 9030 5850 30  0001 C CNN
F 3 "" H 9100 5850 30  0000 C CNN
	1    9100 5850
	0    -1   -1   0   
$EndComp
Wire Wire Line
	8750 5000 8750 5850
Wire Wire Line
	8750 5850 8950 5850
Connection ~ 8750 5000
Wire Wire Line
	9250 5850 9500 5850
Wire Wire Line
	9500 5850 9500 5000
Connection ~ 9500 5000
$Comp
L Rsmall R77
U 1 1 58527EAE
P 9100 10900
F 0 "R77" V 9180 10900 50  0000 C CNN
F 1 "0R" V 9100 10900 50  0000 C CNN
F 2 "IPC7351-Nominal:RESC2012X50" V 9030 10900 30  0001 C CNN
F 3 "" H 9100 10900 30  0000 C CNN
	1    9100 10900
	0    -1   -1   0   
$EndComp
Wire Wire Line
	8750 10000 8750 10900
Wire Wire Line
	8750 10900 8950 10900
Connection ~ 8750 10000
Wire Wire Line
	9250 10900 9500 10900
Wire Wire Line
	9500 10900 9500 10000
Connection ~ 9500 10000
Wire Wire Line
	4650 5500 5950 5500
Wire Wire Line
	5950 5500 5950 5400
Wire Wire Line
	5950 5400 5900 5400
Connection ~ 4650 5400
Text Notes 4550 1100 0    60   ~ 0
Power rating of resistors: I^2R = 0.25*5 = 1.25W peak\n = 0.04W average. Vishay SMD resistor datasheet allows\n10W peak loading at 1us pulse with with 0402 \n=> any SMD package will be OK\n
NoConn ~ 3500 5650
NoConn ~ 3500 5850
NoConn ~ 3500 6050
NoConn ~ 3500 6150
NoConn ~ 3500 6250
NoConn ~ 3500 6350
NoConn ~ 3500 6450
NoConn ~ 3500 6550
NoConn ~ 3500 6650
NoConn ~ 3500 6750
NoConn ~ 3500 6850
NoConn ~ 3500 6950
NoConn ~ 3500 7050
NoConn ~ 2600 7050
NoConn ~ 2600 6950
NoConn ~ 2600 6550
NoConn ~ 2600 6450
NoConn ~ 2600 6350
NoConn ~ 2600 6250
NoConn ~ 2600 6150
NoConn ~ 2600 6050
NoConn ~ 2600 5850
NoConn ~ 2600 5750
NoConn ~ 2600 5650
Wire Wire Line
	3050 3550 3050 3600
Connection ~ 3050 3600
Wire Wire Line
	9050 7850 9050 7900
Connection ~ 9050 7900
Wire Wire Line
	9050 2850 9050 2900
Connection ~ 9050 2900
Wire Wire Line
	15400 5800 15400 6000
Connection ~ 10200 7900
Connection ~ 10900 7900
Connection ~ 11200 7900
Connection ~ 10900 7500
Connection ~ 10900 5800
Connection ~ 11200 5800
Connection ~ 10900 9600
Connection ~ 11200 9600
Connection ~ 11500 5800
Connection ~ 11800 5800
Connection ~ 12100 5800
Connection ~ 12400 5800
Connection ~ 12700 5800
Connection ~ 13000 5800
Connection ~ 13300 5800
Connection ~ 13600 5800
Connection ~ 13900 5800
Connection ~ 14200 5800
Connection ~ 14500 5800
Connection ~ 14800 5800
Connection ~ 15100 5800
Connection ~ 15100 7500
Connection ~ 14800 7500
Connection ~ 14500 7500
Connection ~ 14200 7500
Connection ~ 13900 7500
Connection ~ 13600 7500
Connection ~ 12700 7500
Connection ~ 12400 7500
Connection ~ 12100 7500
Connection ~ 11800 7500
Connection ~ 11500 7500
Connection ~ 11200 7500
Connection ~ 11500 7900
Connection ~ 11800 7900
Connection ~ 12100 7900
Connection ~ 12400 7900
Connection ~ 12700 7900
Connection ~ 13000 7900
Connection ~ 13300 7900
Connection ~ 13600 7900
Connection ~ 13900 7900
Connection ~ 14200 7900
Connection ~ 14500 7900
Connection ~ 14800 7900
Connection ~ 15100 7900
Connection ~ 15100 9600
Connection ~ 14800 9600
Connection ~ 14500 9600
Connection ~ 14200 9600
Connection ~ 13900 9600
Connection ~ 13600 9600
Connection ~ 13300 9600
Connection ~ 13000 9600
Connection ~ 12700 9600
Connection ~ 12400 9600
Connection ~ 12100 9600
Connection ~ 11800 9600
Connection ~ 11500 9600
Connection ~ 10900 4600
Connection ~ 11200 4600
Connection ~ 11500 4600
Connection ~ 11800 4600
Connection ~ 12100 4600
Connection ~ 12400 4600
Connection ~ 12700 4600
Connection ~ 13600 4600
Connection ~ 13900 4600
Connection ~ 14200 4600
Connection ~ 14500 4600
Connection ~ 14800 4600
Connection ~ 15100 4600
Connection ~ 15100 2900
Connection ~ 14800 2900
Connection ~ 14500 2900
Connection ~ 14200 2900
Connection ~ 13900 2900
Connection ~ 13600 2900
Connection ~ 13300 2900
Connection ~ 13000 2900
Connection ~ 12700 2900
Connection ~ 12400 2900
Connection ~ 12100 2900
Connection ~ 11800 2900
Connection ~ 11500 2900
Connection ~ 11200 2900
Connection ~ 10900 2900
Connection ~ 10900 2500
Connection ~ 11200 2500
Connection ~ 11500 2500
Connection ~ 11800 2500
Connection ~ 12100 2500
Connection ~ 12400 2500
Connection ~ 12700 2500
Connection ~ 13600 2500
Connection ~ 13900 2500
Connection ~ 10200 2900
Connection ~ 10900 800 
Connection ~ 11200 800 
Connection ~ 11500 800 
Connection ~ 11800 800 
Connection ~ 12100 800 
Connection ~ 12400 800 
Connection ~ 12700 800 
Connection ~ 13000 800 
Connection ~ 13300 800 
Connection ~ 13600 800 
Connection ~ 13900 800 
Connection ~ 14200 800 
Connection ~ 14500 800 
Connection ~ 14800 800 
Connection ~ 15100 800 
Connection ~ 15100 2500
Connection ~ 14800 2500
Connection ~ 14500 2500
Connection ~ 14200 2500
$Comp
L PWR_FLAG #FLG023
U 1 1 5853EAC2
P 2850 4150
F 0 "#FLG023" H 2850 4245 30  0001 C CNN
F 1 "PWR_FLAG" H 2850 4330 30  0000 C CNN
F 2 "" H 2850 4150 60  0000 C CNN
F 3 "" H 2850 4150 60  0000 C CNN
	1    2850 4150
	1    0    0    -1  
$EndComp
Wire Wire Line
	2850 4150 2850 4200
Connection ~ 3050 4200
Connection ~ 8400 5950
$Comp
L MOUNT M1
U 1 1 585108E2
P 3250 9200
F 0 "M1" H 3250 9300 60  0000 C CNN
F 1 "MOUNT" H 3250 9100 60  0000 C CNN
F 2 "mech:Mount-M3" H 3250 9200 60  0001 C CNN
F 3 "" H 3250 9200 60  0000 C CNN
	1    3250 9200
	1    0    0    -1  
$EndComp
$Comp
L MOUNT M2
U 1 1 58510D90
P 3250 9500
F 0 "M2" H 3250 9600 60  0000 C CNN
F 1 "MOUNT" H 3250 9400 60  0000 C CNN
F 2 "mech:Mount-M3" H 3250 9500 60  0001 C CNN
F 3 "" H 3250 9500 60  0000 C CNN
	1    3250 9500
	1    0    0    -1  
$EndComp
$Comp
L MOUNT M3
U 1 1 58510F90
P 3250 9800
F 0 "M3" H 3250 9900 60  0000 C CNN
F 1 "MOUNT" H 3250 9700 60  0000 C CNN
F 2 "mech:Mount-M3" H 3250 9800 60  0001 C CNN
F 3 "" H 3250 9800 60  0000 C CNN
	1    3250 9800
	1    0    0    -1  
$EndComp
$Comp
L MOUNT M4
U 1 1 58511191
P 3250 10100
F 0 "M4" H 3250 10200 60  0000 C CNN
F 1 "MOUNT" H 3250 10000 60  0000 C CNN
F 2 "mech:Mount-M3" H 3250 10100 60  0001 C CNN
F 3 "" H 3250 10100 60  0000 C CNN
	1    3250 10100
	1    0    0    -1  
$EndComp
$Comp
L Rsmall R78
U 1 1 58513525
P 9800 5250
F 0 "R78" V 9880 5250 50  0000 C CNN
F 1 "10k" V 9800 5250 50  0000 C CNN
F 2 "IPC7351-Nominal:RESC2012X50" V 9730 5250 30  0001 C CNN
F 3 "" H 9800 5250 30  0000 C CNN
	1    9800 5250
	1    0    0    -1  
$EndComp
Wire Wire Line
	9800 5100 9800 5000
Connection ~ 9800 5000
$Comp
L GND #PWR024
U 1 1 58513A85
P 9800 5500
F 0 "#PWR024" H 9800 5500 30  0001 C CNN
F 1 "GND" H 9800 5430 30  0001 C CNN
F 2 "" H 9800 5500 60  0000 C CNN
F 3 "" H 9800 5500 60  0000 C CNN
	1    9800 5500
	1    0    0    -1  
$EndComp
Wire Wire Line
	9800 5400 9800 5500
$Comp
L Rsmall R79
U 1 1 58514BB8
P 9800 10250
F 0 "R79" V 9880 10250 50  0000 C CNN
F 1 "10k" V 9800 10250 50  0000 C CNN
F 2 "IPC7351-Nominal:RESC2012X50" V 9730 10250 30  0001 C CNN
F 3 "" H 9800 10250 30  0000 C CNN
	1    9800 10250
	1    0    0    -1  
$EndComp
$Comp
L GND #PWR025
U 1 1 58514BBE
P 9800 10500
F 0 "#PWR025" H 9800 10500 30  0001 C CNN
F 1 "GND" H 9800 10430 30  0001 C CNN
F 2 "" H 9800 10500 60  0000 C CNN
F 3 "" H 9800 10500 60  0000 C CNN
	1    9800 10500
	1    0    0    -1  
$EndComp
Wire Wire Line
	9800 10400 9800 10500
Wire Wire Line
	9800 10100 9800 10000
Connection ~ 9800 10000
$Comp
L Rsmall R80
U 1 1 58516D8A
P 3750 5950
F 0 "R80" V 3800 6150 50  0000 C CNN
F 1 "0R" V 3750 5950 50  0000 C CNN
F 2 "IPC7351-Nominal:RESC2012X50" V 3680 5950 30  0001 C CNN
F 3 "" H 3750 5950 30  0000 C CNN
	1    3750 5950
	0    1    1    0   
$EndComp
Wire Wire Line
	3500 5950 3600 5950
Wire Wire Line
	3900 5950 4050 5950
Text Notes 4550 6550 0    60   ~ 0
IDC connector and cable capacity is always\nbetter than 1A per conductor at worst case,\nsufficient for 3 daighter boards
Wire Wire Line
	15400 800  10200 800 
Wire Wire Line
	8900 2900 15400 2900
Wire Wire Line
	8900 7900 15400 7900
Wire Wire Line
	10200 5800 15400 5800
Wire Wire Line
	13000 2500 10600 2500
Wire Wire Line
	13000 7500 10600 7500
Wire Wire Line
	13000 9600 10600 9600
Wire Wire Line
	10600 4700 10200 4700
Connection ~ 10600 7500
Wire Wire Line
	13300 2500 15650 2500
Wire Wire Line
	15650 2500 15650 9600
Wire Wire Line
	13300 4600 15650 4600
Wire Wire Line
	13300 7500 15650 7500
Wire Wire Line
	15650 9600 13300 9600
Connection ~ 15650 7500
Connection ~ 15650 4600
Wire Wire Line
	13300 9750 10200 9750
Wire Wire Line
	10200 9750 10200 9800
Connection ~ 15400 9600
Connection ~ 15400 7500
Connection ~ 15400 4600
Connection ~ 15400 2500
Connection ~ 10600 4700
Wire Wire Line
	10200 4700 10200 4800
Wire Wire Line
	10600 4600 13000 4600
$EndSCHEMATC
