G04 #@! TF.FileFunction,Copper,L2,Bot,Signal*
%FSLAX46Y46*%
G04 Gerber Fmt 4.6, Leading zero omitted, Abs format (unit mm)*
G04 Created by KiCad (PCBNEW 4.0.4-stable) date Wednesday, 14 December 2016 'AMt' 11:38:10*
%MOMM*%
%LPD*%
G01*
G04 APERTURE LIST*
%ADD10C,0.100000*%
%ADD11R,2.286000X1.524000*%
%ADD12O,2.286000X1.524000*%
%ADD13O,2.000000X1.200000*%
%ADD14C,3.000000*%
%ADD15O,1.600000X3.800000*%
%ADD16O,3.800000X1.600000*%
%ADD17C,0.800000*%
%ADD18C,1.500000*%
%ADD19C,0.500000*%
%ADD20C,0.254000*%
G04 APERTURE END LIST*
D10*
D11*
X71504000Y-59500000D03*
D12*
X71504000Y-62040000D03*
X71504000Y-64580000D03*
X71504000Y-67120000D03*
X71504000Y-69660000D03*
X68456000Y-59500000D03*
X68456000Y-62040000D03*
X68456000Y-64580000D03*
X68456000Y-67120000D03*
X68456000Y-69660000D03*
D13*
X72240000Y-73480000D03*
X57000000Y-73480000D03*
X72240000Y-76020000D03*
X57000000Y-76020000D03*
X72240000Y-78560000D03*
X57000000Y-78560000D03*
X72240000Y-81100000D03*
X57000000Y-81100000D03*
X72240000Y-83640000D03*
X57000000Y-83640000D03*
X72240000Y-86180000D03*
X57000000Y-86180000D03*
X72240000Y-88720000D03*
X57000000Y-88720000D03*
X72240000Y-91260000D03*
X57000000Y-91260000D03*
X72240000Y-93800000D03*
X57000000Y-93800000D03*
X72240000Y-96340000D03*
X57000000Y-96340000D03*
X72240000Y-98880000D03*
X57000000Y-98880000D03*
X72240000Y-101420000D03*
X57000000Y-101420000D03*
X72240000Y-103960000D03*
X57000000Y-103960000D03*
X72240000Y-106500000D03*
X57000000Y-106500000D03*
X72240000Y-109040000D03*
X57000000Y-109040000D03*
D14*
X154000000Y-109000000D03*
X154000000Y-59500000D03*
X51000000Y-109000000D03*
X51000000Y-74000000D03*
D15*
X61500000Y-66050000D03*
X55700000Y-66050000D03*
D16*
X58500000Y-61250000D03*
D17*
X75224989Y-69160000D03*
X61750000Y-69250000D03*
X100500000Y-61500000D03*
X115500000Y-72000000D03*
X144500000Y-62250000D03*
X144500000Y-101000000D03*
X119750000Y-101000000D03*
X104500000Y-101000000D03*
X145507619Y-100981195D03*
X143498703Y-100970277D03*
X138509169Y-101013949D03*
X133508717Y-101013949D03*
X128497347Y-101046703D03*
X123496895Y-101013949D03*
X118496443Y-101013949D03*
X113485073Y-101013949D03*
X108518467Y-101001939D03*
X103508735Y-101033056D03*
X98509373Y-101001939D03*
X93499642Y-101012311D03*
X88500282Y-101012311D03*
X83500922Y-100991567D03*
X78511934Y-100991567D03*
X79689299Y-101105142D03*
X151250000Y-72750000D03*
X147000000Y-72750000D03*
X142000000Y-72750000D03*
X137000000Y-72750000D03*
X132000000Y-72750000D03*
X127000000Y-72750000D03*
X122000000Y-72750000D03*
X122000000Y-82750000D03*
X127000000Y-82750000D03*
X132000000Y-82750000D03*
X137000000Y-82750000D03*
X142000000Y-82750000D03*
X147000000Y-82750000D03*
X151250000Y-82750000D03*
X151000000Y-100750000D03*
X151500000Y-92750000D03*
X147000000Y-92750000D03*
X142000000Y-92750000D03*
X137000000Y-92750000D03*
X132000000Y-92750000D03*
X127000000Y-92750000D03*
X122000000Y-92750000D03*
X117000000Y-92750000D03*
X112000000Y-92750000D03*
X107000000Y-92750000D03*
X102000000Y-92750000D03*
X97000000Y-92750000D03*
X92000000Y-92750000D03*
X87000000Y-92750000D03*
X82000000Y-92750000D03*
X77500000Y-92750000D03*
X77500000Y-82750000D03*
X82000000Y-82750000D03*
X87000000Y-82750000D03*
X92000000Y-82750000D03*
X97000000Y-82750000D03*
X102000000Y-82750000D03*
X107000000Y-82750000D03*
X112000000Y-82750000D03*
X117000000Y-82750000D03*
X117000000Y-72750000D03*
X112000000Y-72750000D03*
X107000000Y-72750000D03*
X102000000Y-72750000D03*
X97000000Y-72750000D03*
X92000000Y-72750000D03*
X87000000Y-72750000D03*
X82000000Y-72750000D03*
X78000000Y-73000000D03*
X105004841Y-106754841D03*
X91454481Y-109274990D03*
X86482102Y-109274990D03*
X120500000Y-107500000D03*
X64250000Y-63250000D03*
X81750000Y-61500000D03*
X106500000Y-61500000D03*
X124500000Y-61500000D03*
X150500000Y-61500000D03*
X150500000Y-104000000D03*
X121750000Y-103250000D03*
X106000000Y-105500000D03*
X80500000Y-107500000D03*
X126500000Y-109750000D03*
X81750000Y-103250000D03*
X131500000Y-109750000D03*
X131500000Y-108750000D03*
X131500000Y-107750000D03*
X130500000Y-107750000D03*
X129500000Y-107750000D03*
X91500000Y-108750000D03*
X91500000Y-107750000D03*
X90500000Y-107750000D03*
X89500000Y-107750000D03*
X64000000Y-81000000D03*
X67500000Y-81000000D03*
D18*
X61500000Y-66050000D02*
X61500000Y-67500000D01*
X61500000Y-67500000D02*
X63160000Y-69160000D01*
X63160000Y-69160000D02*
X74659304Y-69160000D01*
X74659304Y-69160000D02*
X75224989Y-69160000D01*
X75790674Y-69160000D02*
X75224989Y-69160000D01*
X79250000Y-72000000D02*
X76410000Y-69160000D01*
X76410000Y-69160000D02*
X75790674Y-69160000D01*
X62750000Y-70250000D02*
X61750000Y-69250000D01*
X61750000Y-69250000D02*
X61500000Y-69000000D01*
D19*
X100500000Y-61500000D02*
X100500000Y-71750000D01*
X144500000Y-62250000D02*
X144100001Y-62649999D01*
X144100001Y-62649999D02*
X144100001Y-71850001D01*
D18*
X71250000Y-67120000D02*
X71250000Y-69660000D01*
X77750000Y-72250000D02*
X75750000Y-70250000D01*
X75750000Y-70250000D02*
X62750000Y-70250000D01*
X61500000Y-69000000D02*
X61500000Y-68750000D01*
X61500000Y-68750000D02*
X61500000Y-66050000D01*
D19*
X68710000Y-67120000D02*
X68710000Y-67004020D01*
X68710000Y-67004020D02*
X69922010Y-65792010D01*
X72957990Y-65792010D02*
X73000000Y-65750000D01*
X68710000Y-64580000D02*
X69922010Y-65792010D01*
X69922010Y-65792010D02*
X72957990Y-65792010D01*
X69960000Y-60750000D02*
X73750000Y-60750000D01*
X68710000Y-64580000D02*
X68710000Y-64464020D01*
X68710000Y-64464020D02*
X69922010Y-63252010D01*
X68710000Y-62040000D02*
X69922010Y-63252010D01*
X69922010Y-63252010D02*
X73497990Y-63252010D01*
X68710000Y-59500000D02*
X69960000Y-60750000D01*
X69960000Y-60750000D02*
X70000000Y-60750000D01*
X70000000Y-60750000D02*
X68710000Y-62040000D01*
X67500000Y-81000000D02*
X64000000Y-81000000D01*
D20*
G36*
X151873000Y-101373000D02*
X77127000Y-101373000D01*
X77127000Y-71627000D01*
X151873000Y-71627000D01*
X151873000Y-101373000D01*
X151873000Y-101373000D01*
G37*
X151873000Y-101373000D02*
X77127000Y-101373000D01*
X77127000Y-71627000D01*
X151873000Y-71627000D01*
X151873000Y-101373000D01*
G36*
X152792200Y-57688980D02*
X152191091Y-58289041D01*
X151865372Y-59073459D01*
X151864630Y-59922815D01*
X152188980Y-60707800D01*
X152789041Y-61308909D01*
X153573459Y-61634628D01*
X154422815Y-61635370D01*
X155207800Y-61311020D01*
X155808909Y-60710959D01*
X155873000Y-60556611D01*
X155873000Y-70373000D01*
X144985001Y-70373000D01*
X144985001Y-63169473D01*
X145085515Y-63127942D01*
X145376919Y-62837046D01*
X145534820Y-62456777D01*
X145535179Y-62045029D01*
X145377942Y-61664485D01*
X145087046Y-61373081D01*
X144706777Y-61215180D01*
X144295029Y-61214821D01*
X143914485Y-61372058D01*
X143623081Y-61662954D01*
X143471211Y-62028699D01*
X143282368Y-62311324D01*
X143282368Y-62311325D01*
X143215000Y-62649999D01*
X143215001Y-62650004D01*
X143215001Y-70373000D01*
X101385000Y-70373000D01*
X101385000Y-62067585D01*
X101534820Y-61706777D01*
X101535179Y-61295029D01*
X101377942Y-60914485D01*
X101087046Y-60623081D01*
X100706777Y-60465180D01*
X100295029Y-60464821D01*
X99914485Y-60622058D01*
X99623081Y-60912954D01*
X99465180Y-61293223D01*
X99464821Y-61704971D01*
X99615000Y-62068433D01*
X99615000Y-70373000D01*
X79581686Y-70373000D01*
X77389343Y-68180657D01*
X77306316Y-68125180D01*
X76940017Y-67880427D01*
X76410000Y-67775000D01*
X73130050Y-67775000D01*
X73210493Y-67654609D01*
X73316833Y-67120000D01*
X73210493Y-66585391D01*
X72907661Y-66132172D01*
X72485362Y-65850000D01*
X72907661Y-65567828D01*
X73210493Y-65114609D01*
X73316833Y-64580000D01*
X73210493Y-64045391D01*
X72907661Y-63592172D01*
X72485362Y-63310000D01*
X72907661Y-63027828D01*
X73210493Y-62574609D01*
X73316833Y-62040000D01*
X73210493Y-61505391D01*
X72907661Y-61052172D01*
X72683710Y-60902532D01*
X72882317Y-60865162D01*
X73098441Y-60726090D01*
X73243431Y-60513890D01*
X73294440Y-60262000D01*
X73294440Y-58738000D01*
X73250162Y-58502683D01*
X73111090Y-58286559D01*
X72898890Y-58141569D01*
X72647000Y-58090560D01*
X70361000Y-58090560D01*
X70125683Y-58134838D01*
X69909559Y-58273910D01*
X69766951Y-58482623D01*
X69488941Y-58257941D01*
X68964000Y-58103000D01*
X68583000Y-58103000D01*
X68583000Y-59373000D01*
X68603000Y-59373000D01*
X68603000Y-59627000D01*
X68583000Y-59627000D01*
X68583000Y-61913000D01*
X68603000Y-61913000D01*
X68603000Y-62167000D01*
X68583000Y-62167000D01*
X68583000Y-64453000D01*
X68603000Y-64453000D01*
X68603000Y-64707000D01*
X68583000Y-64707000D01*
X68583000Y-66993000D01*
X68603000Y-66993000D01*
X68603000Y-67247000D01*
X68583000Y-67247000D01*
X68583000Y-67267000D01*
X68329000Y-67267000D01*
X68329000Y-67247000D01*
X66843280Y-67247000D01*
X66720780Y-67463070D01*
X66735740Y-67537277D01*
X66865112Y-67775000D01*
X63733686Y-67775000D01*
X62935000Y-66976314D01*
X62935000Y-64923070D01*
X66720780Y-64923070D01*
X66735740Y-64997277D01*
X66997370Y-65478026D01*
X67423059Y-65822059D01*
X67517723Y-65850000D01*
X67423059Y-65877941D01*
X66997370Y-66221974D01*
X66735740Y-66702723D01*
X66720780Y-66776930D01*
X66843280Y-66993000D01*
X68329000Y-66993000D01*
X68329000Y-64707000D01*
X66843280Y-64707000D01*
X66720780Y-64923070D01*
X62935000Y-64923070D01*
X62935000Y-64900336D01*
X62825767Y-64351185D01*
X62514698Y-63885638D01*
X62049151Y-63574569D01*
X61500000Y-63465336D01*
X60950849Y-63574569D01*
X60485302Y-63885638D01*
X60174233Y-64351185D01*
X60065000Y-64900336D01*
X60065000Y-67199664D01*
X60115000Y-67451031D01*
X60115000Y-69000000D01*
X60220427Y-69530017D01*
X60364418Y-69745515D01*
X60520657Y-69979343D01*
X61770657Y-71229343D01*
X62219984Y-71529574D01*
X62750000Y-71635000D01*
X75176314Y-71635000D01*
X75873000Y-72331686D01*
X75873000Y-102500000D01*
X75883006Y-102549410D01*
X75911447Y-102591035D01*
X75953841Y-102618315D01*
X76000000Y-102627000D01*
X155873000Y-102627000D01*
X155873000Y-107942203D01*
X155811020Y-107792200D01*
X155210959Y-107191091D01*
X154426541Y-106865372D01*
X153577185Y-106864630D01*
X152792200Y-107188980D01*
X152191091Y-107789041D01*
X151865372Y-108573459D01*
X151864630Y-109422815D01*
X152188980Y-110207800D01*
X152789041Y-110808909D01*
X152943389Y-110873000D01*
X52057797Y-110873000D01*
X52207800Y-110811020D01*
X52808909Y-110210959D01*
X53134628Y-109426541D01*
X53134965Y-109040000D01*
X55332968Y-109040000D01*
X55426977Y-109512614D01*
X55694691Y-109913277D01*
X56095354Y-110180991D01*
X56567968Y-110275000D01*
X57432032Y-110275000D01*
X57904646Y-110180991D01*
X58305309Y-109913277D01*
X58573023Y-109512614D01*
X58667032Y-109040000D01*
X70572968Y-109040000D01*
X70666977Y-109512614D01*
X70934691Y-109913277D01*
X71335354Y-110180991D01*
X71807968Y-110275000D01*
X72672032Y-110275000D01*
X73144646Y-110180991D01*
X73545309Y-109913277D01*
X73813023Y-109512614D01*
X73907032Y-109040000D01*
X73813023Y-108567386D01*
X73545309Y-108166723D01*
X73144646Y-107899009D01*
X72672032Y-107805000D01*
X71807968Y-107805000D01*
X71335354Y-107899009D01*
X70934691Y-108166723D01*
X70666977Y-108567386D01*
X70572968Y-109040000D01*
X58667032Y-109040000D01*
X58573023Y-108567386D01*
X58305309Y-108166723D01*
X57904646Y-107899009D01*
X57432032Y-107805000D01*
X56567968Y-107805000D01*
X56095354Y-107899009D01*
X55694691Y-108166723D01*
X55426977Y-108567386D01*
X55332968Y-109040000D01*
X53134965Y-109040000D01*
X53135370Y-108577185D01*
X52811020Y-107792200D01*
X52210959Y-107191091D01*
X51426541Y-106865372D01*
X50577185Y-106864630D01*
X49792200Y-107188980D01*
X49191091Y-107789041D01*
X49127000Y-107943389D01*
X49127000Y-106500000D01*
X55332968Y-106500000D01*
X55426977Y-106972614D01*
X55694691Y-107373277D01*
X56095354Y-107640991D01*
X56567968Y-107735000D01*
X57432032Y-107735000D01*
X57904646Y-107640991D01*
X58305309Y-107373277D01*
X58573023Y-106972614D01*
X58667032Y-106500000D01*
X70572968Y-106500000D01*
X70666977Y-106972614D01*
X70934691Y-107373277D01*
X71335354Y-107640991D01*
X71807968Y-107735000D01*
X72672032Y-107735000D01*
X73144646Y-107640991D01*
X73545309Y-107373277D01*
X73813023Y-106972614D01*
X73907032Y-106500000D01*
X73813023Y-106027386D01*
X73545309Y-105626723D01*
X73144646Y-105359009D01*
X72672032Y-105265000D01*
X71807968Y-105265000D01*
X71335354Y-105359009D01*
X70934691Y-105626723D01*
X70666977Y-106027386D01*
X70572968Y-106500000D01*
X58667032Y-106500000D01*
X58573023Y-106027386D01*
X58305309Y-105626723D01*
X57904646Y-105359009D01*
X57432032Y-105265000D01*
X56567968Y-105265000D01*
X56095354Y-105359009D01*
X55694691Y-105626723D01*
X55426977Y-106027386D01*
X55332968Y-106500000D01*
X49127000Y-106500000D01*
X49127000Y-103960000D01*
X55332968Y-103960000D01*
X55426977Y-104432614D01*
X55694691Y-104833277D01*
X56095354Y-105100991D01*
X56567968Y-105195000D01*
X57432032Y-105195000D01*
X57904646Y-105100991D01*
X58305309Y-104833277D01*
X58573023Y-104432614D01*
X58667032Y-103960000D01*
X70572968Y-103960000D01*
X70666977Y-104432614D01*
X70934691Y-104833277D01*
X71335354Y-105100991D01*
X71807968Y-105195000D01*
X72672032Y-105195000D01*
X73144646Y-105100991D01*
X73545309Y-104833277D01*
X73813023Y-104432614D01*
X73907032Y-103960000D01*
X73813023Y-103487386D01*
X73545309Y-103086723D01*
X73144646Y-102819009D01*
X72672032Y-102725000D01*
X71807968Y-102725000D01*
X71335354Y-102819009D01*
X70934691Y-103086723D01*
X70666977Y-103487386D01*
X70572968Y-103960000D01*
X58667032Y-103960000D01*
X58573023Y-103487386D01*
X58305309Y-103086723D01*
X57904646Y-102819009D01*
X57432032Y-102725000D01*
X56567968Y-102725000D01*
X56095354Y-102819009D01*
X55694691Y-103086723D01*
X55426977Y-103487386D01*
X55332968Y-103960000D01*
X49127000Y-103960000D01*
X49127000Y-101420000D01*
X55332968Y-101420000D01*
X55426977Y-101892614D01*
X55694691Y-102293277D01*
X56095354Y-102560991D01*
X56567968Y-102655000D01*
X57432032Y-102655000D01*
X57904646Y-102560991D01*
X58305309Y-102293277D01*
X58573023Y-101892614D01*
X58667032Y-101420000D01*
X70572968Y-101420000D01*
X70666977Y-101892614D01*
X70934691Y-102293277D01*
X71335354Y-102560991D01*
X71807968Y-102655000D01*
X72672032Y-102655000D01*
X73144646Y-102560991D01*
X73545309Y-102293277D01*
X73813023Y-101892614D01*
X73907032Y-101420000D01*
X73813023Y-100947386D01*
X73545309Y-100546723D01*
X73144646Y-100279009D01*
X72672032Y-100185000D01*
X71807968Y-100185000D01*
X71335354Y-100279009D01*
X70934691Y-100546723D01*
X70666977Y-100947386D01*
X70572968Y-101420000D01*
X58667032Y-101420000D01*
X58573023Y-100947386D01*
X58305309Y-100546723D01*
X57904646Y-100279009D01*
X57432032Y-100185000D01*
X56567968Y-100185000D01*
X56095354Y-100279009D01*
X55694691Y-100546723D01*
X55426977Y-100947386D01*
X55332968Y-101420000D01*
X49127000Y-101420000D01*
X49127000Y-98880000D01*
X55332968Y-98880000D01*
X55426977Y-99352614D01*
X55694691Y-99753277D01*
X56095354Y-100020991D01*
X56567968Y-100115000D01*
X57432032Y-100115000D01*
X57904646Y-100020991D01*
X58305309Y-99753277D01*
X58573023Y-99352614D01*
X58667032Y-98880000D01*
X70572968Y-98880000D01*
X70666977Y-99352614D01*
X70934691Y-99753277D01*
X71335354Y-100020991D01*
X71807968Y-100115000D01*
X72672032Y-100115000D01*
X73144646Y-100020991D01*
X73545309Y-99753277D01*
X73813023Y-99352614D01*
X73907032Y-98880000D01*
X73813023Y-98407386D01*
X73545309Y-98006723D01*
X73144646Y-97739009D01*
X72672032Y-97645000D01*
X71807968Y-97645000D01*
X71335354Y-97739009D01*
X70934691Y-98006723D01*
X70666977Y-98407386D01*
X70572968Y-98880000D01*
X58667032Y-98880000D01*
X58573023Y-98407386D01*
X58305309Y-98006723D01*
X57904646Y-97739009D01*
X57432032Y-97645000D01*
X56567968Y-97645000D01*
X56095354Y-97739009D01*
X55694691Y-98006723D01*
X55426977Y-98407386D01*
X55332968Y-98880000D01*
X49127000Y-98880000D01*
X49127000Y-96340000D01*
X55332968Y-96340000D01*
X55426977Y-96812614D01*
X55694691Y-97213277D01*
X56095354Y-97480991D01*
X56567968Y-97575000D01*
X57432032Y-97575000D01*
X57904646Y-97480991D01*
X58305309Y-97213277D01*
X58573023Y-96812614D01*
X58667032Y-96340000D01*
X70572968Y-96340000D01*
X70666977Y-96812614D01*
X70934691Y-97213277D01*
X71335354Y-97480991D01*
X71807968Y-97575000D01*
X72672032Y-97575000D01*
X73144646Y-97480991D01*
X73545309Y-97213277D01*
X73813023Y-96812614D01*
X73907032Y-96340000D01*
X73813023Y-95867386D01*
X73545309Y-95466723D01*
X73144646Y-95199009D01*
X72672032Y-95105000D01*
X71807968Y-95105000D01*
X71335354Y-95199009D01*
X70934691Y-95466723D01*
X70666977Y-95867386D01*
X70572968Y-96340000D01*
X58667032Y-96340000D01*
X58573023Y-95867386D01*
X58305309Y-95466723D01*
X57904646Y-95199009D01*
X57432032Y-95105000D01*
X56567968Y-95105000D01*
X56095354Y-95199009D01*
X55694691Y-95466723D01*
X55426977Y-95867386D01*
X55332968Y-96340000D01*
X49127000Y-96340000D01*
X49127000Y-93800000D01*
X55332968Y-93800000D01*
X55426977Y-94272614D01*
X55694691Y-94673277D01*
X56095354Y-94940991D01*
X56567968Y-95035000D01*
X57432032Y-95035000D01*
X57904646Y-94940991D01*
X58305309Y-94673277D01*
X58573023Y-94272614D01*
X58667032Y-93800000D01*
X70572968Y-93800000D01*
X70666977Y-94272614D01*
X70934691Y-94673277D01*
X71335354Y-94940991D01*
X71807968Y-95035000D01*
X72672032Y-95035000D01*
X73144646Y-94940991D01*
X73545309Y-94673277D01*
X73813023Y-94272614D01*
X73907032Y-93800000D01*
X73813023Y-93327386D01*
X73545309Y-92926723D01*
X73144646Y-92659009D01*
X72672032Y-92565000D01*
X71807968Y-92565000D01*
X71335354Y-92659009D01*
X70934691Y-92926723D01*
X70666977Y-93327386D01*
X70572968Y-93800000D01*
X58667032Y-93800000D01*
X58573023Y-93327386D01*
X58305309Y-92926723D01*
X57904646Y-92659009D01*
X57432032Y-92565000D01*
X56567968Y-92565000D01*
X56095354Y-92659009D01*
X55694691Y-92926723D01*
X55426977Y-93327386D01*
X55332968Y-93800000D01*
X49127000Y-93800000D01*
X49127000Y-91260000D01*
X55332968Y-91260000D01*
X55426977Y-91732614D01*
X55694691Y-92133277D01*
X56095354Y-92400991D01*
X56567968Y-92495000D01*
X57432032Y-92495000D01*
X57904646Y-92400991D01*
X58305309Y-92133277D01*
X58573023Y-91732614D01*
X58667032Y-91260000D01*
X70572968Y-91260000D01*
X70666977Y-91732614D01*
X70934691Y-92133277D01*
X71335354Y-92400991D01*
X71807968Y-92495000D01*
X72672032Y-92495000D01*
X73144646Y-92400991D01*
X73545309Y-92133277D01*
X73813023Y-91732614D01*
X73907032Y-91260000D01*
X73813023Y-90787386D01*
X73545309Y-90386723D01*
X73144646Y-90119009D01*
X72672032Y-90025000D01*
X71807968Y-90025000D01*
X71335354Y-90119009D01*
X70934691Y-90386723D01*
X70666977Y-90787386D01*
X70572968Y-91260000D01*
X58667032Y-91260000D01*
X58573023Y-90787386D01*
X58305309Y-90386723D01*
X57904646Y-90119009D01*
X57432032Y-90025000D01*
X56567968Y-90025000D01*
X56095354Y-90119009D01*
X55694691Y-90386723D01*
X55426977Y-90787386D01*
X55332968Y-91260000D01*
X49127000Y-91260000D01*
X49127000Y-88720000D01*
X55332968Y-88720000D01*
X55426977Y-89192614D01*
X55694691Y-89593277D01*
X56095354Y-89860991D01*
X56567968Y-89955000D01*
X57432032Y-89955000D01*
X57904646Y-89860991D01*
X58305309Y-89593277D01*
X58573023Y-89192614D01*
X58667032Y-88720000D01*
X70572968Y-88720000D01*
X70666977Y-89192614D01*
X70934691Y-89593277D01*
X71335354Y-89860991D01*
X71807968Y-89955000D01*
X72672032Y-89955000D01*
X73144646Y-89860991D01*
X73545309Y-89593277D01*
X73813023Y-89192614D01*
X73907032Y-88720000D01*
X73813023Y-88247386D01*
X73545309Y-87846723D01*
X73144646Y-87579009D01*
X72672032Y-87485000D01*
X71807968Y-87485000D01*
X71335354Y-87579009D01*
X70934691Y-87846723D01*
X70666977Y-88247386D01*
X70572968Y-88720000D01*
X58667032Y-88720000D01*
X58573023Y-88247386D01*
X58305309Y-87846723D01*
X57904646Y-87579009D01*
X57432032Y-87485000D01*
X56567968Y-87485000D01*
X56095354Y-87579009D01*
X55694691Y-87846723D01*
X55426977Y-88247386D01*
X55332968Y-88720000D01*
X49127000Y-88720000D01*
X49127000Y-86180000D01*
X55332968Y-86180000D01*
X55426977Y-86652614D01*
X55694691Y-87053277D01*
X56095354Y-87320991D01*
X56567968Y-87415000D01*
X57432032Y-87415000D01*
X57904646Y-87320991D01*
X58305309Y-87053277D01*
X58573023Y-86652614D01*
X58667032Y-86180000D01*
X70572968Y-86180000D01*
X70666977Y-86652614D01*
X70934691Y-87053277D01*
X71335354Y-87320991D01*
X71807968Y-87415000D01*
X72672032Y-87415000D01*
X73144646Y-87320991D01*
X73545309Y-87053277D01*
X73813023Y-86652614D01*
X73907032Y-86180000D01*
X73813023Y-85707386D01*
X73545309Y-85306723D01*
X73144646Y-85039009D01*
X72672032Y-84945000D01*
X71807968Y-84945000D01*
X71335354Y-85039009D01*
X70934691Y-85306723D01*
X70666977Y-85707386D01*
X70572968Y-86180000D01*
X58667032Y-86180000D01*
X58573023Y-85707386D01*
X58305309Y-85306723D01*
X57904646Y-85039009D01*
X57432032Y-84945000D01*
X56567968Y-84945000D01*
X56095354Y-85039009D01*
X55694691Y-85306723D01*
X55426977Y-85707386D01*
X55332968Y-86180000D01*
X49127000Y-86180000D01*
X49127000Y-83640000D01*
X55332968Y-83640000D01*
X55426977Y-84112614D01*
X55694691Y-84513277D01*
X56095354Y-84780991D01*
X56567968Y-84875000D01*
X57432032Y-84875000D01*
X57904646Y-84780991D01*
X58305309Y-84513277D01*
X58573023Y-84112614D01*
X58667032Y-83640000D01*
X70572968Y-83640000D01*
X70666977Y-84112614D01*
X70934691Y-84513277D01*
X71335354Y-84780991D01*
X71807968Y-84875000D01*
X72672032Y-84875000D01*
X73144646Y-84780991D01*
X73545309Y-84513277D01*
X73813023Y-84112614D01*
X73907032Y-83640000D01*
X73813023Y-83167386D01*
X73545309Y-82766723D01*
X73144646Y-82499009D01*
X72672032Y-82405000D01*
X71807968Y-82405000D01*
X71335354Y-82499009D01*
X70934691Y-82766723D01*
X70666977Y-83167386D01*
X70572968Y-83640000D01*
X58667032Y-83640000D01*
X58573023Y-83167386D01*
X58305309Y-82766723D01*
X57904646Y-82499009D01*
X57432032Y-82405000D01*
X56567968Y-82405000D01*
X56095354Y-82499009D01*
X55694691Y-82766723D01*
X55426977Y-83167386D01*
X55332968Y-83640000D01*
X49127000Y-83640000D01*
X49127000Y-81417609D01*
X55406538Y-81417609D01*
X55410408Y-81455281D01*
X55636920Y-81883474D01*
X56010053Y-82192390D01*
X56473000Y-82335000D01*
X56873000Y-82335000D01*
X56873000Y-81227000D01*
X57127000Y-81227000D01*
X57127000Y-82335000D01*
X57527000Y-82335000D01*
X57989947Y-82192390D01*
X58363080Y-81883474D01*
X58589592Y-81455281D01*
X58593462Y-81417609D01*
X58468731Y-81227000D01*
X57127000Y-81227000D01*
X56873000Y-81227000D01*
X55531269Y-81227000D01*
X55406538Y-81417609D01*
X49127000Y-81417609D01*
X49127000Y-81204971D01*
X62964821Y-81204971D01*
X63122058Y-81585515D01*
X63412954Y-81876919D01*
X63793223Y-82034820D01*
X64204971Y-82035179D01*
X64568433Y-81885000D01*
X66932415Y-81885000D01*
X67293223Y-82034820D01*
X67704971Y-82035179D01*
X68085515Y-81877942D01*
X68376919Y-81587046D01*
X68534820Y-81206777D01*
X68534913Y-81100000D01*
X70572968Y-81100000D01*
X70666977Y-81572614D01*
X70934691Y-81973277D01*
X71335354Y-82240991D01*
X71807968Y-82335000D01*
X72672032Y-82335000D01*
X73144646Y-82240991D01*
X73545309Y-81973277D01*
X73813023Y-81572614D01*
X73907032Y-81100000D01*
X73813023Y-80627386D01*
X73545309Y-80226723D01*
X73144646Y-79959009D01*
X72672032Y-79865000D01*
X71807968Y-79865000D01*
X71335354Y-79959009D01*
X70934691Y-80226723D01*
X70666977Y-80627386D01*
X70572968Y-81100000D01*
X68534913Y-81100000D01*
X68535179Y-80795029D01*
X68377942Y-80414485D01*
X68087046Y-80123081D01*
X67706777Y-79965180D01*
X67295029Y-79964821D01*
X66931567Y-80115000D01*
X64567585Y-80115000D01*
X64206777Y-79965180D01*
X63795029Y-79964821D01*
X63414485Y-80122058D01*
X63123081Y-80412954D01*
X62965180Y-80793223D01*
X62964821Y-81204971D01*
X49127000Y-81204971D01*
X49127000Y-80782391D01*
X55406538Y-80782391D01*
X55531269Y-80973000D01*
X56873000Y-80973000D01*
X56873000Y-79865000D01*
X57127000Y-79865000D01*
X57127000Y-80973000D01*
X58468731Y-80973000D01*
X58593462Y-80782391D01*
X58589592Y-80744719D01*
X58363080Y-80316526D01*
X57989947Y-80007610D01*
X57527000Y-79865000D01*
X57127000Y-79865000D01*
X56873000Y-79865000D01*
X56473000Y-79865000D01*
X56010053Y-80007610D01*
X55636920Y-80316526D01*
X55410408Y-80744719D01*
X55406538Y-80782391D01*
X49127000Y-80782391D01*
X49127000Y-78560000D01*
X55332968Y-78560000D01*
X55426977Y-79032614D01*
X55694691Y-79433277D01*
X56095354Y-79700991D01*
X56567968Y-79795000D01*
X57432032Y-79795000D01*
X57904646Y-79700991D01*
X58305309Y-79433277D01*
X58573023Y-79032614D01*
X58667032Y-78560000D01*
X70572968Y-78560000D01*
X70666977Y-79032614D01*
X70934691Y-79433277D01*
X71335354Y-79700991D01*
X71807968Y-79795000D01*
X72672032Y-79795000D01*
X73144646Y-79700991D01*
X73545309Y-79433277D01*
X73813023Y-79032614D01*
X73907032Y-78560000D01*
X73813023Y-78087386D01*
X73545309Y-77686723D01*
X73144646Y-77419009D01*
X72672032Y-77325000D01*
X71807968Y-77325000D01*
X71335354Y-77419009D01*
X70934691Y-77686723D01*
X70666977Y-78087386D01*
X70572968Y-78560000D01*
X58667032Y-78560000D01*
X58573023Y-78087386D01*
X58305309Y-77686723D01*
X57904646Y-77419009D01*
X57432032Y-77325000D01*
X56567968Y-77325000D01*
X56095354Y-77419009D01*
X55694691Y-77686723D01*
X55426977Y-78087386D01*
X55332968Y-78560000D01*
X49127000Y-78560000D01*
X49127000Y-75057797D01*
X49188980Y-75207800D01*
X49789041Y-75808909D01*
X50573459Y-76134628D01*
X51422815Y-76135370D01*
X51702031Y-76020000D01*
X55332968Y-76020000D01*
X55426977Y-76492614D01*
X55694691Y-76893277D01*
X56095354Y-77160991D01*
X56567968Y-77255000D01*
X57432032Y-77255000D01*
X57904646Y-77160991D01*
X58305309Y-76893277D01*
X58573023Y-76492614D01*
X58603855Y-76337609D01*
X70646538Y-76337609D01*
X70650408Y-76375281D01*
X70876920Y-76803474D01*
X71250053Y-77112390D01*
X71713000Y-77255000D01*
X72113000Y-77255000D01*
X72113000Y-76147000D01*
X72367000Y-76147000D01*
X72367000Y-77255000D01*
X72767000Y-77255000D01*
X73229947Y-77112390D01*
X73603080Y-76803474D01*
X73829592Y-76375281D01*
X73833462Y-76337609D01*
X73708731Y-76147000D01*
X72367000Y-76147000D01*
X72113000Y-76147000D01*
X70771269Y-76147000D01*
X70646538Y-76337609D01*
X58603855Y-76337609D01*
X58667032Y-76020000D01*
X58603856Y-75702391D01*
X70646538Y-75702391D01*
X70771269Y-75893000D01*
X72113000Y-75893000D01*
X72113000Y-74785000D01*
X72367000Y-74785000D01*
X72367000Y-75893000D01*
X73708731Y-75893000D01*
X73833462Y-75702391D01*
X73829592Y-75664719D01*
X73603080Y-75236526D01*
X73229947Y-74927610D01*
X72767000Y-74785000D01*
X72367000Y-74785000D01*
X72113000Y-74785000D01*
X71713000Y-74785000D01*
X71250053Y-74927610D01*
X70876920Y-75236526D01*
X70650408Y-75664719D01*
X70646538Y-75702391D01*
X58603856Y-75702391D01*
X58573023Y-75547386D01*
X58305309Y-75146723D01*
X57904646Y-74879009D01*
X57432032Y-74785000D01*
X56567968Y-74785000D01*
X56095354Y-74879009D01*
X55694691Y-75146723D01*
X55426977Y-75547386D01*
X55332968Y-76020000D01*
X51702031Y-76020000D01*
X52207800Y-75811020D01*
X52808909Y-75210959D01*
X53134628Y-74426541D01*
X53135370Y-73577185D01*
X53095214Y-73480000D01*
X55332968Y-73480000D01*
X55426977Y-73952614D01*
X55694691Y-74353277D01*
X56095354Y-74620991D01*
X56567968Y-74715000D01*
X57432032Y-74715000D01*
X57904646Y-74620991D01*
X58305309Y-74353277D01*
X58573023Y-73952614D01*
X58667032Y-73480000D01*
X70572968Y-73480000D01*
X70666977Y-73952614D01*
X70934691Y-74353277D01*
X71335354Y-74620991D01*
X71807968Y-74715000D01*
X72672032Y-74715000D01*
X73144646Y-74620991D01*
X73545309Y-74353277D01*
X73813023Y-73952614D01*
X73907032Y-73480000D01*
X73813023Y-73007386D01*
X73545309Y-72606723D01*
X73144646Y-72339009D01*
X72672032Y-72245000D01*
X71807968Y-72245000D01*
X71335354Y-72339009D01*
X70934691Y-72606723D01*
X70666977Y-73007386D01*
X70572968Y-73480000D01*
X58667032Y-73480000D01*
X58573023Y-73007386D01*
X58305309Y-72606723D01*
X57904646Y-72339009D01*
X57432032Y-72245000D01*
X56567968Y-72245000D01*
X56095354Y-72339009D01*
X55694691Y-72606723D01*
X55426977Y-73007386D01*
X55332968Y-73480000D01*
X53095214Y-73480000D01*
X52811020Y-72792200D01*
X52210959Y-72191091D01*
X51426541Y-71865372D01*
X50577185Y-71864630D01*
X49792200Y-72188980D01*
X49191091Y-72789041D01*
X49127000Y-72943389D01*
X49127000Y-66177000D01*
X54265000Y-66177000D01*
X54265000Y-67277000D01*
X54422834Y-67816483D01*
X54775104Y-68254500D01*
X55268181Y-68524367D01*
X55350961Y-68541904D01*
X55573000Y-68419915D01*
X55573000Y-66177000D01*
X55827000Y-66177000D01*
X55827000Y-68419915D01*
X56049039Y-68541904D01*
X56131819Y-68524367D01*
X56624896Y-68254500D01*
X56977166Y-67816483D01*
X57135000Y-67277000D01*
X57135000Y-66177000D01*
X55827000Y-66177000D01*
X55573000Y-66177000D01*
X54265000Y-66177000D01*
X49127000Y-66177000D01*
X49127000Y-64823000D01*
X54265000Y-64823000D01*
X54265000Y-65923000D01*
X55573000Y-65923000D01*
X55573000Y-63680085D01*
X55827000Y-63680085D01*
X55827000Y-65923000D01*
X57135000Y-65923000D01*
X57135000Y-64823000D01*
X56977166Y-64283517D01*
X56624896Y-63845500D01*
X56131819Y-63575633D01*
X56049039Y-63558096D01*
X55827000Y-63680085D01*
X55573000Y-63680085D01*
X55350961Y-63558096D01*
X55268181Y-63575633D01*
X54775104Y-63845500D01*
X54422834Y-64283517D01*
X54265000Y-64823000D01*
X49127000Y-64823000D01*
X49127000Y-61599039D01*
X56008096Y-61599039D01*
X56025633Y-61681819D01*
X56295500Y-62174896D01*
X56733517Y-62527166D01*
X57273000Y-62685000D01*
X58373000Y-62685000D01*
X58373000Y-61377000D01*
X58627000Y-61377000D01*
X58627000Y-62685000D01*
X59727000Y-62685000D01*
X60266483Y-62527166D01*
X60445653Y-62383070D01*
X66720780Y-62383070D01*
X66735740Y-62457277D01*
X66997370Y-62938026D01*
X67423059Y-63282059D01*
X67517723Y-63310000D01*
X67423059Y-63337941D01*
X66997370Y-63681974D01*
X66735740Y-64162723D01*
X66720780Y-64236930D01*
X66843280Y-64453000D01*
X68329000Y-64453000D01*
X68329000Y-62167000D01*
X66843280Y-62167000D01*
X66720780Y-62383070D01*
X60445653Y-62383070D01*
X60704500Y-62174896D01*
X60974367Y-61681819D01*
X60991904Y-61599039D01*
X60869915Y-61377000D01*
X58627000Y-61377000D01*
X58373000Y-61377000D01*
X56130085Y-61377000D01*
X56008096Y-61599039D01*
X49127000Y-61599039D01*
X49127000Y-60900961D01*
X56008096Y-60900961D01*
X56130085Y-61123000D01*
X58373000Y-61123000D01*
X58373000Y-59815000D01*
X58627000Y-59815000D01*
X58627000Y-61123000D01*
X60869915Y-61123000D01*
X60991904Y-60900961D01*
X60974367Y-60818181D01*
X60704500Y-60325104D01*
X60266483Y-59972834D01*
X59822945Y-59843070D01*
X66720780Y-59843070D01*
X66735740Y-59917277D01*
X66997370Y-60398026D01*
X67423059Y-60742059D01*
X67517723Y-60770000D01*
X67423059Y-60797941D01*
X66997370Y-61141974D01*
X66735740Y-61622723D01*
X66720780Y-61696930D01*
X66843280Y-61913000D01*
X68329000Y-61913000D01*
X68329000Y-59627000D01*
X66843280Y-59627000D01*
X66720780Y-59843070D01*
X59822945Y-59843070D01*
X59727000Y-59815000D01*
X58627000Y-59815000D01*
X58373000Y-59815000D01*
X57273000Y-59815000D01*
X56733517Y-59972834D01*
X56295500Y-60325104D01*
X56025633Y-60818181D01*
X56008096Y-60900961D01*
X49127000Y-60900961D01*
X49127000Y-59156930D01*
X66720780Y-59156930D01*
X66843280Y-59373000D01*
X68329000Y-59373000D01*
X68329000Y-58103000D01*
X67948000Y-58103000D01*
X67423059Y-58257941D01*
X66997370Y-58601974D01*
X66735740Y-59082723D01*
X66720780Y-59156930D01*
X49127000Y-59156930D01*
X49127000Y-57627000D01*
X152942203Y-57627000D01*
X152792200Y-57688980D01*
X152792200Y-57688980D01*
G37*
X152792200Y-57688980D02*
X152191091Y-58289041D01*
X151865372Y-59073459D01*
X151864630Y-59922815D01*
X152188980Y-60707800D01*
X152789041Y-61308909D01*
X153573459Y-61634628D01*
X154422815Y-61635370D01*
X155207800Y-61311020D01*
X155808909Y-60710959D01*
X155873000Y-60556611D01*
X155873000Y-70373000D01*
X144985001Y-70373000D01*
X144985001Y-63169473D01*
X145085515Y-63127942D01*
X145376919Y-62837046D01*
X145534820Y-62456777D01*
X145535179Y-62045029D01*
X145377942Y-61664485D01*
X145087046Y-61373081D01*
X144706777Y-61215180D01*
X144295029Y-61214821D01*
X143914485Y-61372058D01*
X143623081Y-61662954D01*
X143471211Y-62028699D01*
X143282368Y-62311324D01*
X143282368Y-62311325D01*
X143215000Y-62649999D01*
X143215001Y-62650004D01*
X143215001Y-70373000D01*
X101385000Y-70373000D01*
X101385000Y-62067585D01*
X101534820Y-61706777D01*
X101535179Y-61295029D01*
X101377942Y-60914485D01*
X101087046Y-60623081D01*
X100706777Y-60465180D01*
X100295029Y-60464821D01*
X99914485Y-60622058D01*
X99623081Y-60912954D01*
X99465180Y-61293223D01*
X99464821Y-61704971D01*
X99615000Y-62068433D01*
X99615000Y-70373000D01*
X79581686Y-70373000D01*
X77389343Y-68180657D01*
X77306316Y-68125180D01*
X76940017Y-67880427D01*
X76410000Y-67775000D01*
X73130050Y-67775000D01*
X73210493Y-67654609D01*
X73316833Y-67120000D01*
X73210493Y-66585391D01*
X72907661Y-66132172D01*
X72485362Y-65850000D01*
X72907661Y-65567828D01*
X73210493Y-65114609D01*
X73316833Y-64580000D01*
X73210493Y-64045391D01*
X72907661Y-63592172D01*
X72485362Y-63310000D01*
X72907661Y-63027828D01*
X73210493Y-62574609D01*
X73316833Y-62040000D01*
X73210493Y-61505391D01*
X72907661Y-61052172D01*
X72683710Y-60902532D01*
X72882317Y-60865162D01*
X73098441Y-60726090D01*
X73243431Y-60513890D01*
X73294440Y-60262000D01*
X73294440Y-58738000D01*
X73250162Y-58502683D01*
X73111090Y-58286559D01*
X72898890Y-58141569D01*
X72647000Y-58090560D01*
X70361000Y-58090560D01*
X70125683Y-58134838D01*
X69909559Y-58273910D01*
X69766951Y-58482623D01*
X69488941Y-58257941D01*
X68964000Y-58103000D01*
X68583000Y-58103000D01*
X68583000Y-59373000D01*
X68603000Y-59373000D01*
X68603000Y-59627000D01*
X68583000Y-59627000D01*
X68583000Y-61913000D01*
X68603000Y-61913000D01*
X68603000Y-62167000D01*
X68583000Y-62167000D01*
X68583000Y-64453000D01*
X68603000Y-64453000D01*
X68603000Y-64707000D01*
X68583000Y-64707000D01*
X68583000Y-66993000D01*
X68603000Y-66993000D01*
X68603000Y-67247000D01*
X68583000Y-67247000D01*
X68583000Y-67267000D01*
X68329000Y-67267000D01*
X68329000Y-67247000D01*
X66843280Y-67247000D01*
X66720780Y-67463070D01*
X66735740Y-67537277D01*
X66865112Y-67775000D01*
X63733686Y-67775000D01*
X62935000Y-66976314D01*
X62935000Y-64923070D01*
X66720780Y-64923070D01*
X66735740Y-64997277D01*
X66997370Y-65478026D01*
X67423059Y-65822059D01*
X67517723Y-65850000D01*
X67423059Y-65877941D01*
X66997370Y-66221974D01*
X66735740Y-66702723D01*
X66720780Y-66776930D01*
X66843280Y-66993000D01*
X68329000Y-66993000D01*
X68329000Y-64707000D01*
X66843280Y-64707000D01*
X66720780Y-64923070D01*
X62935000Y-64923070D01*
X62935000Y-64900336D01*
X62825767Y-64351185D01*
X62514698Y-63885638D01*
X62049151Y-63574569D01*
X61500000Y-63465336D01*
X60950849Y-63574569D01*
X60485302Y-63885638D01*
X60174233Y-64351185D01*
X60065000Y-64900336D01*
X60065000Y-67199664D01*
X60115000Y-67451031D01*
X60115000Y-69000000D01*
X60220427Y-69530017D01*
X60364418Y-69745515D01*
X60520657Y-69979343D01*
X61770657Y-71229343D01*
X62219984Y-71529574D01*
X62750000Y-71635000D01*
X75176314Y-71635000D01*
X75873000Y-72331686D01*
X75873000Y-102500000D01*
X75883006Y-102549410D01*
X75911447Y-102591035D01*
X75953841Y-102618315D01*
X76000000Y-102627000D01*
X155873000Y-102627000D01*
X155873000Y-107942203D01*
X155811020Y-107792200D01*
X155210959Y-107191091D01*
X154426541Y-106865372D01*
X153577185Y-106864630D01*
X152792200Y-107188980D01*
X152191091Y-107789041D01*
X151865372Y-108573459D01*
X151864630Y-109422815D01*
X152188980Y-110207800D01*
X152789041Y-110808909D01*
X152943389Y-110873000D01*
X52057797Y-110873000D01*
X52207800Y-110811020D01*
X52808909Y-110210959D01*
X53134628Y-109426541D01*
X53134965Y-109040000D01*
X55332968Y-109040000D01*
X55426977Y-109512614D01*
X55694691Y-109913277D01*
X56095354Y-110180991D01*
X56567968Y-110275000D01*
X57432032Y-110275000D01*
X57904646Y-110180991D01*
X58305309Y-109913277D01*
X58573023Y-109512614D01*
X58667032Y-109040000D01*
X70572968Y-109040000D01*
X70666977Y-109512614D01*
X70934691Y-109913277D01*
X71335354Y-110180991D01*
X71807968Y-110275000D01*
X72672032Y-110275000D01*
X73144646Y-110180991D01*
X73545309Y-109913277D01*
X73813023Y-109512614D01*
X73907032Y-109040000D01*
X73813023Y-108567386D01*
X73545309Y-108166723D01*
X73144646Y-107899009D01*
X72672032Y-107805000D01*
X71807968Y-107805000D01*
X71335354Y-107899009D01*
X70934691Y-108166723D01*
X70666977Y-108567386D01*
X70572968Y-109040000D01*
X58667032Y-109040000D01*
X58573023Y-108567386D01*
X58305309Y-108166723D01*
X57904646Y-107899009D01*
X57432032Y-107805000D01*
X56567968Y-107805000D01*
X56095354Y-107899009D01*
X55694691Y-108166723D01*
X55426977Y-108567386D01*
X55332968Y-109040000D01*
X53134965Y-109040000D01*
X53135370Y-108577185D01*
X52811020Y-107792200D01*
X52210959Y-107191091D01*
X51426541Y-106865372D01*
X50577185Y-106864630D01*
X49792200Y-107188980D01*
X49191091Y-107789041D01*
X49127000Y-107943389D01*
X49127000Y-106500000D01*
X55332968Y-106500000D01*
X55426977Y-106972614D01*
X55694691Y-107373277D01*
X56095354Y-107640991D01*
X56567968Y-107735000D01*
X57432032Y-107735000D01*
X57904646Y-107640991D01*
X58305309Y-107373277D01*
X58573023Y-106972614D01*
X58667032Y-106500000D01*
X70572968Y-106500000D01*
X70666977Y-106972614D01*
X70934691Y-107373277D01*
X71335354Y-107640991D01*
X71807968Y-107735000D01*
X72672032Y-107735000D01*
X73144646Y-107640991D01*
X73545309Y-107373277D01*
X73813023Y-106972614D01*
X73907032Y-106500000D01*
X73813023Y-106027386D01*
X73545309Y-105626723D01*
X73144646Y-105359009D01*
X72672032Y-105265000D01*
X71807968Y-105265000D01*
X71335354Y-105359009D01*
X70934691Y-105626723D01*
X70666977Y-106027386D01*
X70572968Y-106500000D01*
X58667032Y-106500000D01*
X58573023Y-106027386D01*
X58305309Y-105626723D01*
X57904646Y-105359009D01*
X57432032Y-105265000D01*
X56567968Y-105265000D01*
X56095354Y-105359009D01*
X55694691Y-105626723D01*
X55426977Y-106027386D01*
X55332968Y-106500000D01*
X49127000Y-106500000D01*
X49127000Y-103960000D01*
X55332968Y-103960000D01*
X55426977Y-104432614D01*
X55694691Y-104833277D01*
X56095354Y-105100991D01*
X56567968Y-105195000D01*
X57432032Y-105195000D01*
X57904646Y-105100991D01*
X58305309Y-104833277D01*
X58573023Y-104432614D01*
X58667032Y-103960000D01*
X70572968Y-103960000D01*
X70666977Y-104432614D01*
X70934691Y-104833277D01*
X71335354Y-105100991D01*
X71807968Y-105195000D01*
X72672032Y-105195000D01*
X73144646Y-105100991D01*
X73545309Y-104833277D01*
X73813023Y-104432614D01*
X73907032Y-103960000D01*
X73813023Y-103487386D01*
X73545309Y-103086723D01*
X73144646Y-102819009D01*
X72672032Y-102725000D01*
X71807968Y-102725000D01*
X71335354Y-102819009D01*
X70934691Y-103086723D01*
X70666977Y-103487386D01*
X70572968Y-103960000D01*
X58667032Y-103960000D01*
X58573023Y-103487386D01*
X58305309Y-103086723D01*
X57904646Y-102819009D01*
X57432032Y-102725000D01*
X56567968Y-102725000D01*
X56095354Y-102819009D01*
X55694691Y-103086723D01*
X55426977Y-103487386D01*
X55332968Y-103960000D01*
X49127000Y-103960000D01*
X49127000Y-101420000D01*
X55332968Y-101420000D01*
X55426977Y-101892614D01*
X55694691Y-102293277D01*
X56095354Y-102560991D01*
X56567968Y-102655000D01*
X57432032Y-102655000D01*
X57904646Y-102560991D01*
X58305309Y-102293277D01*
X58573023Y-101892614D01*
X58667032Y-101420000D01*
X70572968Y-101420000D01*
X70666977Y-101892614D01*
X70934691Y-102293277D01*
X71335354Y-102560991D01*
X71807968Y-102655000D01*
X72672032Y-102655000D01*
X73144646Y-102560991D01*
X73545309Y-102293277D01*
X73813023Y-101892614D01*
X73907032Y-101420000D01*
X73813023Y-100947386D01*
X73545309Y-100546723D01*
X73144646Y-100279009D01*
X72672032Y-100185000D01*
X71807968Y-100185000D01*
X71335354Y-100279009D01*
X70934691Y-100546723D01*
X70666977Y-100947386D01*
X70572968Y-101420000D01*
X58667032Y-101420000D01*
X58573023Y-100947386D01*
X58305309Y-100546723D01*
X57904646Y-100279009D01*
X57432032Y-100185000D01*
X56567968Y-100185000D01*
X56095354Y-100279009D01*
X55694691Y-100546723D01*
X55426977Y-100947386D01*
X55332968Y-101420000D01*
X49127000Y-101420000D01*
X49127000Y-98880000D01*
X55332968Y-98880000D01*
X55426977Y-99352614D01*
X55694691Y-99753277D01*
X56095354Y-100020991D01*
X56567968Y-100115000D01*
X57432032Y-100115000D01*
X57904646Y-100020991D01*
X58305309Y-99753277D01*
X58573023Y-99352614D01*
X58667032Y-98880000D01*
X70572968Y-98880000D01*
X70666977Y-99352614D01*
X70934691Y-99753277D01*
X71335354Y-100020991D01*
X71807968Y-100115000D01*
X72672032Y-100115000D01*
X73144646Y-100020991D01*
X73545309Y-99753277D01*
X73813023Y-99352614D01*
X73907032Y-98880000D01*
X73813023Y-98407386D01*
X73545309Y-98006723D01*
X73144646Y-97739009D01*
X72672032Y-97645000D01*
X71807968Y-97645000D01*
X71335354Y-97739009D01*
X70934691Y-98006723D01*
X70666977Y-98407386D01*
X70572968Y-98880000D01*
X58667032Y-98880000D01*
X58573023Y-98407386D01*
X58305309Y-98006723D01*
X57904646Y-97739009D01*
X57432032Y-97645000D01*
X56567968Y-97645000D01*
X56095354Y-97739009D01*
X55694691Y-98006723D01*
X55426977Y-98407386D01*
X55332968Y-98880000D01*
X49127000Y-98880000D01*
X49127000Y-96340000D01*
X55332968Y-96340000D01*
X55426977Y-96812614D01*
X55694691Y-97213277D01*
X56095354Y-97480991D01*
X56567968Y-97575000D01*
X57432032Y-97575000D01*
X57904646Y-97480991D01*
X58305309Y-97213277D01*
X58573023Y-96812614D01*
X58667032Y-96340000D01*
X70572968Y-96340000D01*
X70666977Y-96812614D01*
X70934691Y-97213277D01*
X71335354Y-97480991D01*
X71807968Y-97575000D01*
X72672032Y-97575000D01*
X73144646Y-97480991D01*
X73545309Y-97213277D01*
X73813023Y-96812614D01*
X73907032Y-96340000D01*
X73813023Y-95867386D01*
X73545309Y-95466723D01*
X73144646Y-95199009D01*
X72672032Y-95105000D01*
X71807968Y-95105000D01*
X71335354Y-95199009D01*
X70934691Y-95466723D01*
X70666977Y-95867386D01*
X70572968Y-96340000D01*
X58667032Y-96340000D01*
X58573023Y-95867386D01*
X58305309Y-95466723D01*
X57904646Y-95199009D01*
X57432032Y-95105000D01*
X56567968Y-95105000D01*
X56095354Y-95199009D01*
X55694691Y-95466723D01*
X55426977Y-95867386D01*
X55332968Y-96340000D01*
X49127000Y-96340000D01*
X49127000Y-93800000D01*
X55332968Y-93800000D01*
X55426977Y-94272614D01*
X55694691Y-94673277D01*
X56095354Y-94940991D01*
X56567968Y-95035000D01*
X57432032Y-95035000D01*
X57904646Y-94940991D01*
X58305309Y-94673277D01*
X58573023Y-94272614D01*
X58667032Y-93800000D01*
X70572968Y-93800000D01*
X70666977Y-94272614D01*
X70934691Y-94673277D01*
X71335354Y-94940991D01*
X71807968Y-95035000D01*
X72672032Y-95035000D01*
X73144646Y-94940991D01*
X73545309Y-94673277D01*
X73813023Y-94272614D01*
X73907032Y-93800000D01*
X73813023Y-93327386D01*
X73545309Y-92926723D01*
X73144646Y-92659009D01*
X72672032Y-92565000D01*
X71807968Y-92565000D01*
X71335354Y-92659009D01*
X70934691Y-92926723D01*
X70666977Y-93327386D01*
X70572968Y-93800000D01*
X58667032Y-93800000D01*
X58573023Y-93327386D01*
X58305309Y-92926723D01*
X57904646Y-92659009D01*
X57432032Y-92565000D01*
X56567968Y-92565000D01*
X56095354Y-92659009D01*
X55694691Y-92926723D01*
X55426977Y-93327386D01*
X55332968Y-93800000D01*
X49127000Y-93800000D01*
X49127000Y-91260000D01*
X55332968Y-91260000D01*
X55426977Y-91732614D01*
X55694691Y-92133277D01*
X56095354Y-92400991D01*
X56567968Y-92495000D01*
X57432032Y-92495000D01*
X57904646Y-92400991D01*
X58305309Y-92133277D01*
X58573023Y-91732614D01*
X58667032Y-91260000D01*
X70572968Y-91260000D01*
X70666977Y-91732614D01*
X70934691Y-92133277D01*
X71335354Y-92400991D01*
X71807968Y-92495000D01*
X72672032Y-92495000D01*
X73144646Y-92400991D01*
X73545309Y-92133277D01*
X73813023Y-91732614D01*
X73907032Y-91260000D01*
X73813023Y-90787386D01*
X73545309Y-90386723D01*
X73144646Y-90119009D01*
X72672032Y-90025000D01*
X71807968Y-90025000D01*
X71335354Y-90119009D01*
X70934691Y-90386723D01*
X70666977Y-90787386D01*
X70572968Y-91260000D01*
X58667032Y-91260000D01*
X58573023Y-90787386D01*
X58305309Y-90386723D01*
X57904646Y-90119009D01*
X57432032Y-90025000D01*
X56567968Y-90025000D01*
X56095354Y-90119009D01*
X55694691Y-90386723D01*
X55426977Y-90787386D01*
X55332968Y-91260000D01*
X49127000Y-91260000D01*
X49127000Y-88720000D01*
X55332968Y-88720000D01*
X55426977Y-89192614D01*
X55694691Y-89593277D01*
X56095354Y-89860991D01*
X56567968Y-89955000D01*
X57432032Y-89955000D01*
X57904646Y-89860991D01*
X58305309Y-89593277D01*
X58573023Y-89192614D01*
X58667032Y-88720000D01*
X70572968Y-88720000D01*
X70666977Y-89192614D01*
X70934691Y-89593277D01*
X71335354Y-89860991D01*
X71807968Y-89955000D01*
X72672032Y-89955000D01*
X73144646Y-89860991D01*
X73545309Y-89593277D01*
X73813023Y-89192614D01*
X73907032Y-88720000D01*
X73813023Y-88247386D01*
X73545309Y-87846723D01*
X73144646Y-87579009D01*
X72672032Y-87485000D01*
X71807968Y-87485000D01*
X71335354Y-87579009D01*
X70934691Y-87846723D01*
X70666977Y-88247386D01*
X70572968Y-88720000D01*
X58667032Y-88720000D01*
X58573023Y-88247386D01*
X58305309Y-87846723D01*
X57904646Y-87579009D01*
X57432032Y-87485000D01*
X56567968Y-87485000D01*
X56095354Y-87579009D01*
X55694691Y-87846723D01*
X55426977Y-88247386D01*
X55332968Y-88720000D01*
X49127000Y-88720000D01*
X49127000Y-86180000D01*
X55332968Y-86180000D01*
X55426977Y-86652614D01*
X55694691Y-87053277D01*
X56095354Y-87320991D01*
X56567968Y-87415000D01*
X57432032Y-87415000D01*
X57904646Y-87320991D01*
X58305309Y-87053277D01*
X58573023Y-86652614D01*
X58667032Y-86180000D01*
X70572968Y-86180000D01*
X70666977Y-86652614D01*
X70934691Y-87053277D01*
X71335354Y-87320991D01*
X71807968Y-87415000D01*
X72672032Y-87415000D01*
X73144646Y-87320991D01*
X73545309Y-87053277D01*
X73813023Y-86652614D01*
X73907032Y-86180000D01*
X73813023Y-85707386D01*
X73545309Y-85306723D01*
X73144646Y-85039009D01*
X72672032Y-84945000D01*
X71807968Y-84945000D01*
X71335354Y-85039009D01*
X70934691Y-85306723D01*
X70666977Y-85707386D01*
X70572968Y-86180000D01*
X58667032Y-86180000D01*
X58573023Y-85707386D01*
X58305309Y-85306723D01*
X57904646Y-85039009D01*
X57432032Y-84945000D01*
X56567968Y-84945000D01*
X56095354Y-85039009D01*
X55694691Y-85306723D01*
X55426977Y-85707386D01*
X55332968Y-86180000D01*
X49127000Y-86180000D01*
X49127000Y-83640000D01*
X55332968Y-83640000D01*
X55426977Y-84112614D01*
X55694691Y-84513277D01*
X56095354Y-84780991D01*
X56567968Y-84875000D01*
X57432032Y-84875000D01*
X57904646Y-84780991D01*
X58305309Y-84513277D01*
X58573023Y-84112614D01*
X58667032Y-83640000D01*
X70572968Y-83640000D01*
X70666977Y-84112614D01*
X70934691Y-84513277D01*
X71335354Y-84780991D01*
X71807968Y-84875000D01*
X72672032Y-84875000D01*
X73144646Y-84780991D01*
X73545309Y-84513277D01*
X73813023Y-84112614D01*
X73907032Y-83640000D01*
X73813023Y-83167386D01*
X73545309Y-82766723D01*
X73144646Y-82499009D01*
X72672032Y-82405000D01*
X71807968Y-82405000D01*
X71335354Y-82499009D01*
X70934691Y-82766723D01*
X70666977Y-83167386D01*
X70572968Y-83640000D01*
X58667032Y-83640000D01*
X58573023Y-83167386D01*
X58305309Y-82766723D01*
X57904646Y-82499009D01*
X57432032Y-82405000D01*
X56567968Y-82405000D01*
X56095354Y-82499009D01*
X55694691Y-82766723D01*
X55426977Y-83167386D01*
X55332968Y-83640000D01*
X49127000Y-83640000D01*
X49127000Y-81417609D01*
X55406538Y-81417609D01*
X55410408Y-81455281D01*
X55636920Y-81883474D01*
X56010053Y-82192390D01*
X56473000Y-82335000D01*
X56873000Y-82335000D01*
X56873000Y-81227000D01*
X57127000Y-81227000D01*
X57127000Y-82335000D01*
X57527000Y-82335000D01*
X57989947Y-82192390D01*
X58363080Y-81883474D01*
X58589592Y-81455281D01*
X58593462Y-81417609D01*
X58468731Y-81227000D01*
X57127000Y-81227000D01*
X56873000Y-81227000D01*
X55531269Y-81227000D01*
X55406538Y-81417609D01*
X49127000Y-81417609D01*
X49127000Y-81204971D01*
X62964821Y-81204971D01*
X63122058Y-81585515D01*
X63412954Y-81876919D01*
X63793223Y-82034820D01*
X64204971Y-82035179D01*
X64568433Y-81885000D01*
X66932415Y-81885000D01*
X67293223Y-82034820D01*
X67704971Y-82035179D01*
X68085515Y-81877942D01*
X68376919Y-81587046D01*
X68534820Y-81206777D01*
X68534913Y-81100000D01*
X70572968Y-81100000D01*
X70666977Y-81572614D01*
X70934691Y-81973277D01*
X71335354Y-82240991D01*
X71807968Y-82335000D01*
X72672032Y-82335000D01*
X73144646Y-82240991D01*
X73545309Y-81973277D01*
X73813023Y-81572614D01*
X73907032Y-81100000D01*
X73813023Y-80627386D01*
X73545309Y-80226723D01*
X73144646Y-79959009D01*
X72672032Y-79865000D01*
X71807968Y-79865000D01*
X71335354Y-79959009D01*
X70934691Y-80226723D01*
X70666977Y-80627386D01*
X70572968Y-81100000D01*
X68534913Y-81100000D01*
X68535179Y-80795029D01*
X68377942Y-80414485D01*
X68087046Y-80123081D01*
X67706777Y-79965180D01*
X67295029Y-79964821D01*
X66931567Y-80115000D01*
X64567585Y-80115000D01*
X64206777Y-79965180D01*
X63795029Y-79964821D01*
X63414485Y-80122058D01*
X63123081Y-80412954D01*
X62965180Y-80793223D01*
X62964821Y-81204971D01*
X49127000Y-81204971D01*
X49127000Y-80782391D01*
X55406538Y-80782391D01*
X55531269Y-80973000D01*
X56873000Y-80973000D01*
X56873000Y-79865000D01*
X57127000Y-79865000D01*
X57127000Y-80973000D01*
X58468731Y-80973000D01*
X58593462Y-80782391D01*
X58589592Y-80744719D01*
X58363080Y-80316526D01*
X57989947Y-80007610D01*
X57527000Y-79865000D01*
X57127000Y-79865000D01*
X56873000Y-79865000D01*
X56473000Y-79865000D01*
X56010053Y-80007610D01*
X55636920Y-80316526D01*
X55410408Y-80744719D01*
X55406538Y-80782391D01*
X49127000Y-80782391D01*
X49127000Y-78560000D01*
X55332968Y-78560000D01*
X55426977Y-79032614D01*
X55694691Y-79433277D01*
X56095354Y-79700991D01*
X56567968Y-79795000D01*
X57432032Y-79795000D01*
X57904646Y-79700991D01*
X58305309Y-79433277D01*
X58573023Y-79032614D01*
X58667032Y-78560000D01*
X70572968Y-78560000D01*
X70666977Y-79032614D01*
X70934691Y-79433277D01*
X71335354Y-79700991D01*
X71807968Y-79795000D01*
X72672032Y-79795000D01*
X73144646Y-79700991D01*
X73545309Y-79433277D01*
X73813023Y-79032614D01*
X73907032Y-78560000D01*
X73813023Y-78087386D01*
X73545309Y-77686723D01*
X73144646Y-77419009D01*
X72672032Y-77325000D01*
X71807968Y-77325000D01*
X71335354Y-77419009D01*
X70934691Y-77686723D01*
X70666977Y-78087386D01*
X70572968Y-78560000D01*
X58667032Y-78560000D01*
X58573023Y-78087386D01*
X58305309Y-77686723D01*
X57904646Y-77419009D01*
X57432032Y-77325000D01*
X56567968Y-77325000D01*
X56095354Y-77419009D01*
X55694691Y-77686723D01*
X55426977Y-78087386D01*
X55332968Y-78560000D01*
X49127000Y-78560000D01*
X49127000Y-75057797D01*
X49188980Y-75207800D01*
X49789041Y-75808909D01*
X50573459Y-76134628D01*
X51422815Y-76135370D01*
X51702031Y-76020000D01*
X55332968Y-76020000D01*
X55426977Y-76492614D01*
X55694691Y-76893277D01*
X56095354Y-77160991D01*
X56567968Y-77255000D01*
X57432032Y-77255000D01*
X57904646Y-77160991D01*
X58305309Y-76893277D01*
X58573023Y-76492614D01*
X58603855Y-76337609D01*
X70646538Y-76337609D01*
X70650408Y-76375281D01*
X70876920Y-76803474D01*
X71250053Y-77112390D01*
X71713000Y-77255000D01*
X72113000Y-77255000D01*
X72113000Y-76147000D01*
X72367000Y-76147000D01*
X72367000Y-77255000D01*
X72767000Y-77255000D01*
X73229947Y-77112390D01*
X73603080Y-76803474D01*
X73829592Y-76375281D01*
X73833462Y-76337609D01*
X73708731Y-76147000D01*
X72367000Y-76147000D01*
X72113000Y-76147000D01*
X70771269Y-76147000D01*
X70646538Y-76337609D01*
X58603855Y-76337609D01*
X58667032Y-76020000D01*
X58603856Y-75702391D01*
X70646538Y-75702391D01*
X70771269Y-75893000D01*
X72113000Y-75893000D01*
X72113000Y-74785000D01*
X72367000Y-74785000D01*
X72367000Y-75893000D01*
X73708731Y-75893000D01*
X73833462Y-75702391D01*
X73829592Y-75664719D01*
X73603080Y-75236526D01*
X73229947Y-74927610D01*
X72767000Y-74785000D01*
X72367000Y-74785000D01*
X72113000Y-74785000D01*
X71713000Y-74785000D01*
X71250053Y-74927610D01*
X70876920Y-75236526D01*
X70650408Y-75664719D01*
X70646538Y-75702391D01*
X58603856Y-75702391D01*
X58573023Y-75547386D01*
X58305309Y-75146723D01*
X57904646Y-74879009D01*
X57432032Y-74785000D01*
X56567968Y-74785000D01*
X56095354Y-74879009D01*
X55694691Y-75146723D01*
X55426977Y-75547386D01*
X55332968Y-76020000D01*
X51702031Y-76020000D01*
X52207800Y-75811020D01*
X52808909Y-75210959D01*
X53134628Y-74426541D01*
X53135370Y-73577185D01*
X53095214Y-73480000D01*
X55332968Y-73480000D01*
X55426977Y-73952614D01*
X55694691Y-74353277D01*
X56095354Y-74620991D01*
X56567968Y-74715000D01*
X57432032Y-74715000D01*
X57904646Y-74620991D01*
X58305309Y-74353277D01*
X58573023Y-73952614D01*
X58667032Y-73480000D01*
X70572968Y-73480000D01*
X70666977Y-73952614D01*
X70934691Y-74353277D01*
X71335354Y-74620991D01*
X71807968Y-74715000D01*
X72672032Y-74715000D01*
X73144646Y-74620991D01*
X73545309Y-74353277D01*
X73813023Y-73952614D01*
X73907032Y-73480000D01*
X73813023Y-73007386D01*
X73545309Y-72606723D01*
X73144646Y-72339009D01*
X72672032Y-72245000D01*
X71807968Y-72245000D01*
X71335354Y-72339009D01*
X70934691Y-72606723D01*
X70666977Y-73007386D01*
X70572968Y-73480000D01*
X58667032Y-73480000D01*
X58573023Y-73007386D01*
X58305309Y-72606723D01*
X57904646Y-72339009D01*
X57432032Y-72245000D01*
X56567968Y-72245000D01*
X56095354Y-72339009D01*
X55694691Y-72606723D01*
X55426977Y-73007386D01*
X55332968Y-73480000D01*
X53095214Y-73480000D01*
X52811020Y-72792200D01*
X52210959Y-72191091D01*
X51426541Y-71865372D01*
X50577185Y-71864630D01*
X49792200Y-72188980D01*
X49191091Y-72789041D01*
X49127000Y-72943389D01*
X49127000Y-66177000D01*
X54265000Y-66177000D01*
X54265000Y-67277000D01*
X54422834Y-67816483D01*
X54775104Y-68254500D01*
X55268181Y-68524367D01*
X55350961Y-68541904D01*
X55573000Y-68419915D01*
X55573000Y-66177000D01*
X55827000Y-66177000D01*
X55827000Y-68419915D01*
X56049039Y-68541904D01*
X56131819Y-68524367D01*
X56624896Y-68254500D01*
X56977166Y-67816483D01*
X57135000Y-67277000D01*
X57135000Y-66177000D01*
X55827000Y-66177000D01*
X55573000Y-66177000D01*
X54265000Y-66177000D01*
X49127000Y-66177000D01*
X49127000Y-64823000D01*
X54265000Y-64823000D01*
X54265000Y-65923000D01*
X55573000Y-65923000D01*
X55573000Y-63680085D01*
X55827000Y-63680085D01*
X55827000Y-65923000D01*
X57135000Y-65923000D01*
X57135000Y-64823000D01*
X56977166Y-64283517D01*
X56624896Y-63845500D01*
X56131819Y-63575633D01*
X56049039Y-63558096D01*
X55827000Y-63680085D01*
X55573000Y-63680085D01*
X55350961Y-63558096D01*
X55268181Y-63575633D01*
X54775104Y-63845500D01*
X54422834Y-64283517D01*
X54265000Y-64823000D01*
X49127000Y-64823000D01*
X49127000Y-61599039D01*
X56008096Y-61599039D01*
X56025633Y-61681819D01*
X56295500Y-62174896D01*
X56733517Y-62527166D01*
X57273000Y-62685000D01*
X58373000Y-62685000D01*
X58373000Y-61377000D01*
X58627000Y-61377000D01*
X58627000Y-62685000D01*
X59727000Y-62685000D01*
X60266483Y-62527166D01*
X60445653Y-62383070D01*
X66720780Y-62383070D01*
X66735740Y-62457277D01*
X66997370Y-62938026D01*
X67423059Y-63282059D01*
X67517723Y-63310000D01*
X67423059Y-63337941D01*
X66997370Y-63681974D01*
X66735740Y-64162723D01*
X66720780Y-64236930D01*
X66843280Y-64453000D01*
X68329000Y-64453000D01*
X68329000Y-62167000D01*
X66843280Y-62167000D01*
X66720780Y-62383070D01*
X60445653Y-62383070D01*
X60704500Y-62174896D01*
X60974367Y-61681819D01*
X60991904Y-61599039D01*
X60869915Y-61377000D01*
X58627000Y-61377000D01*
X58373000Y-61377000D01*
X56130085Y-61377000D01*
X56008096Y-61599039D01*
X49127000Y-61599039D01*
X49127000Y-60900961D01*
X56008096Y-60900961D01*
X56130085Y-61123000D01*
X58373000Y-61123000D01*
X58373000Y-59815000D01*
X58627000Y-59815000D01*
X58627000Y-61123000D01*
X60869915Y-61123000D01*
X60991904Y-60900961D01*
X60974367Y-60818181D01*
X60704500Y-60325104D01*
X60266483Y-59972834D01*
X59822945Y-59843070D01*
X66720780Y-59843070D01*
X66735740Y-59917277D01*
X66997370Y-60398026D01*
X67423059Y-60742059D01*
X67517723Y-60770000D01*
X67423059Y-60797941D01*
X66997370Y-61141974D01*
X66735740Y-61622723D01*
X66720780Y-61696930D01*
X66843280Y-61913000D01*
X68329000Y-61913000D01*
X68329000Y-59627000D01*
X66843280Y-59627000D01*
X66720780Y-59843070D01*
X59822945Y-59843070D01*
X59727000Y-59815000D01*
X58627000Y-59815000D01*
X58373000Y-59815000D01*
X57273000Y-59815000D01*
X56733517Y-59972834D01*
X56295500Y-60325104D01*
X56025633Y-60818181D01*
X56008096Y-60900961D01*
X49127000Y-60900961D01*
X49127000Y-59156930D01*
X66720780Y-59156930D01*
X66843280Y-59373000D01*
X68329000Y-59373000D01*
X68329000Y-58103000D01*
X67948000Y-58103000D01*
X67423059Y-58257941D01*
X66997370Y-58601974D01*
X66735740Y-59082723D01*
X66720780Y-59156930D01*
X49127000Y-59156930D01*
X49127000Y-57627000D01*
X152942203Y-57627000D01*
X152792200Y-57688980D01*
G36*
X70100339Y-65567828D02*
X70522638Y-65850000D01*
X70100339Y-66132172D01*
X69971056Y-66325657D01*
X69914630Y-66221974D01*
X69488941Y-65877941D01*
X69394277Y-65850000D01*
X69488941Y-65822059D01*
X69914630Y-65478026D01*
X69971056Y-65374343D01*
X70100339Y-65567828D01*
X70100339Y-65567828D01*
G37*
X70100339Y-65567828D02*
X70522638Y-65850000D01*
X70100339Y-66132172D01*
X69971056Y-66325657D01*
X69914630Y-66221974D01*
X69488941Y-65877941D01*
X69394277Y-65850000D01*
X69488941Y-65822059D01*
X69914630Y-65478026D01*
X69971056Y-65374343D01*
X70100339Y-65567828D01*
G36*
X70100339Y-63027828D02*
X70522638Y-63310000D01*
X70100339Y-63592172D01*
X69971056Y-63785657D01*
X69914630Y-63681974D01*
X69488941Y-63337941D01*
X69394277Y-63310000D01*
X69488941Y-63282059D01*
X69914630Y-62938026D01*
X69971056Y-62834343D01*
X70100339Y-63027828D01*
X70100339Y-63027828D01*
G37*
X70100339Y-63027828D02*
X70522638Y-63310000D01*
X70100339Y-63592172D01*
X69971056Y-63785657D01*
X69914630Y-63681974D01*
X69488941Y-63337941D01*
X69394277Y-63310000D01*
X69488941Y-63282059D01*
X69914630Y-62938026D01*
X69971056Y-62834343D01*
X70100339Y-63027828D01*
M02*
